{"@t":"2021-08-29T20:22:25.2958717Z","@mt":"Acquiring.","SourceContext":"Umbraco.Cms.Core.Runtime.MainDom","ProcessId":2284,"ProcessName":"iisexpress","ThreadId":1,"AppDomainId":1,"AppDomainAppId":"1317b4e1457b8b3d80d9fc74a5657c5870271dda","MachineName":"LAPTOP-P8HSFIHG","Log4NetLevel":"INFO "}
{"@t":"2021-08-29T20:22:25.3074387Z","@mt":"Acquired.","SourceContext":"Umbraco.Cms.Core.Runtime.MainDom","ProcessId":2284,"ProcessName":"iisexpress","ThreadId":1,"AppDomainId":1,"AppDomainAppId":"1317b4e1457b8b3d80d9fc74a5657c5870271dda","MachineName":"LAPTOP-P8HSFIHG","Log4NetLevel":"INFO "}
{"@t":"2021-08-29T20:22:26.8580688Z","@mt":"Application started. Press Ctrl+C to shut down.","SourceContext":"Microsoft.Hosting.Lifetime","ProcessId":2284,"ProcessName":"iisexpress","ThreadId":1,"AppDomainId":1,"AppDomainAppId":"1317b4e1457b8b3d80d9fc74a5657c5870271dda","MachineName":"LAPTOP-P8HSFIHG","Log4NetLevel":"INFO "}
{"@t":"2021-08-29T20:22:26.8583270Z","@mt":"Hosting environment: {envName}","envName":"Development","SourceContext":"Microsoft.Hosting.Lifetime","ProcessId":2284,"ProcessName":"iisexpress","ThreadId":1,"AppDomainId":1,"AppDomainAppId":"1317b4e1457b8b3d80d9fc74a5657c5870271dda","MachineName":"LAPTOP-P8HSFIHG","Log4NetLevel":"INFO "}
{"@t":"2021-08-29T20:22:26.8585356Z","@mt":"Content root path: {contentRoot}","contentRoot":"C:\\Projects\\UmbracoHowTo\\ourumbraco","SourceContext":"Microsoft.Hosting.Lifetime","ProcessId":2284,"ProcessName":"iisexpress","ThreadId":1,"AppDomainId":1,"AppDomainAppId":"1317b4e1457b8b3d80d9fc74a5657c5870271dda","MachineName":"LAPTOP-P8HSFIHG","Log4NetLevel":"INFO "}
{"@t":"2021-08-29T20:22:27.0929197Z","@mt":"Registered with MainDom, localContentDbExists? {LocalContentDbExists}, localMediaDbExists? {LocalMediaDbExists}","LocalContentDbExists":true,"LocalMediaDbExists":true,"SourceContext":"Umbraco.Cms.Infrastructure.PublishedCache.PublishedSnapshotService","RequestId":"8000003e-000a-ff00-b63f-84710c7967bb","RequestPath":"/","ProcessId":2284,"ProcessName":"iisexpress","ThreadId":16,"AppDomainId":1,"AppDomainAppId":"1317b4e1457b8b3d80d9fc74a5657c5870271dda","MachineName":"LAPTOP-P8HSFIHG","Log4NetLevel":"INFO ","HttpRequestId":"c6b14037-1ee5-47f3-8301-83f58a2d5e6c","HttpRequestNumber":1,"HttpSessionId":"0"}
{"@t":"2021-08-29T20:22:27.0944700Z","@mt":"Creating the content store, localContentDbExists? {LocalContentDbExists}","LocalContentDbExists":true,"SourceContext":"Umbraco.Cms.Infrastructure.PublishedCache.PublishedSnapshotService","RequestId":"8000003e-000a-ff00-b63f-84710c7967bb","RequestPath":"/","ProcessId":2284,"ProcessName":"iisexpress","ThreadId":16,"AppDomainId":1,"AppDomainAppId":"1317b4e1457b8b3d80d9fc74a5657c5870271dda","MachineName":"LAPTOP-P8HSFIHG","Log4NetLevel":"INFO ","HttpRequestId":"c6b14037-1ee5-47f3-8301-83f58a2d5e6c","HttpRequestNumber":1,"HttpSessionId":"0"}
{"@t":"2021-08-29T20:22:27.0965620Z","@mt":"Creating the media store, localMediaDbExists? {LocalMediaDbExists}","LocalMediaDbExists":true,"SourceContext":"Umbraco.Cms.Infrastructure.PublishedCache.PublishedSnapshotService","RequestId":"8000003e-000a-ff00-b63f-84710c7967bb","RequestPath":"/","ProcessId":2284,"ProcessName":"iisexpress","ThreadId":16,"AppDomainId":1,"AppDomainAppId":"1317b4e1457b8b3d80d9fc74a5657c5870271dda","MachineName":"LAPTOP-P8HSFIHG","Log4NetLevel":"INFO ","HttpRequestId":"c6b14037-1ee5-47f3-8301-83f58a2d5e6c","HttpRequestNumber":1,"HttpSessionId":"0"}
{"@t":"2021-08-29T20:22:27.4977612Z","@mt":"{StartMessage} [Timing {TimingId}]","StartMessage":"Loading content from local cache file","TimingId":"2dfa413","SourceContext":"Umbraco.Cms.Core.Logging.ProfilingLogger","RequestId":"8000003e-000a-ff00-b63f-84710c7967bb","RequestPath":"/","ProcessId":2284,"ProcessName":"iisexpress","ThreadId":16,"AppDomainId":1,"AppDomainAppId":"1317b4e1457b8b3d80d9fc74a5657c5870271dda","MachineName":"LAPTOP-P8HSFIHG","Log4NetLevel":"INFO ","HttpRequestId":"c6b14037-1ee5-47f3-8301-83f58a2d5e6c","HttpRequestNumber":1,"HttpSessionId":"0"}
{"@t":"2021-08-29T20:22:27.5152353Z","@mt":"{EndMessage} ({Duration}ms) [Timing {TimingId}]","EndMessage":"Completed.","Duration":17,"TimingId":"2dfa413","SourceContext":"Umbraco.Cms.Core.Logging.ProfilingLogger","RequestId":"8000003e-000a-ff00-b63f-84710c7967bb","RequestPath":"/","ProcessId":2284,"ProcessName":"iisexpress","ThreadId":16,"AppDomainId":1,"AppDomainAppId":"1317b4e1457b8b3d80d9fc74a5657c5870271dda","MachineName":"LAPTOP-P8HSFIHG","Log4NetLevel":"INFO ","HttpRequestId":"c6b14037-1ee5-47f3-8301-83f58a2d5e6c","HttpRequestNumber":1,"HttpSessionId":"0"}
{"@t":"2021-08-29T20:22:27.5421324Z","@mt":"{StartMessage} [Timing {TimingId}]","StartMessage":"Loading media from local cache file","TimingId":"efc2c4e","SourceContext":"Umbraco.Cms.Core.Logging.ProfilingLogger","RequestId":"8000003e-000a-ff00-b63f-84710c7967bb","RequestPath":"/","ProcessId":2284,"ProcessName":"iisexpress","ThreadId":16,"AppDomainId":1,"AppDomainAppId":"1317b4e1457b8b3d80d9fc74a5657c5870271dda","MachineName":"LAPTOP-P8HSFIHG","Log4NetLevel":"INFO ","HttpRequestId":"c6b14037-1ee5-47f3-8301-83f58a2d5e6c","HttpRequestNumber":1,"HttpSessionId":"0"}
{"@t":"2021-08-29T20:22:27.5424167Z","@mt":"Tried to load {entityType} from the local cache file but it was empty.","entityType":"media","SourceContext":"Umbraco.Cms.Infrastructure.PublishedCache.PublishedSnapshotService","RequestId":"8000003e-000a-ff00-b63f-84710c7967bb","RequestPath":"/","ProcessId":2284,"ProcessName":"iisexpress","ThreadId":16,"AppDomainId":1,"AppDomainAppId":"1317b4e1457b8b3d80d9fc74a5657c5870271dda","MachineName":"LAPTOP-P8HSFIHG","Log4NetLevel":"INFO ","HttpRequestId":"c6b14037-1ee5-47f3-8301-83f58a2d5e6c","HttpRequestNumber":1,"HttpSessionId":"0"}
{"@t":"2021-08-29T20:22:27.5424432Z","@mt":"{EndMessage} ({Duration}ms) [Timing {TimingId}]","EndMessage":"Completed.","Duration":0,"TimingId":"efc2c4e","SourceContext":"Umbraco.Cms.Core.Logging.ProfilingLogger","RequestId":"8000003e-000a-ff00-b63f-84710c7967bb","RequestPath":"/","ProcessId":2284,"ProcessName":"iisexpress","ThreadId":16,"AppDomainId":1,"AppDomainAppId":"1317b4e1457b8b3d80d9fc74a5657c5870271dda","MachineName":"LAPTOP-P8HSFIHG","Log4NetLevel":"INFO ","HttpRequestId":"c6b14037-1ee5-47f3-8301-83f58a2d5e6c","HttpRequestNumber":1,"HttpSessionId":"0"}
{"@t":"2021-08-29T20:22:27.5452716Z","@mt":"Loading media from local db raised warnings, will reload from database.","@l":"Warning","SourceContext":"Umbraco.Cms.Infrastructure.PublishedCache.PublishedSnapshotService","RequestId":"8000003e-000a-ff00-b63f-84710c7967bb","RequestPath":"/","ProcessId":2284,"ProcessName":"iisexpress","ThreadId":16,"AppDomainId":1,"AppDomainAppId":"1317b4e1457b8b3d80d9fc74a5657c5870271dda","MachineName":"LAPTOP-P8HSFIHG","Log4NetLevel":"WARN ","HttpRequestId":"c6b14037-1ee5-47f3-8301-83f58a2d5e6c","HttpRequestNumber":1,"HttpSessionId":"0"}
{"@t":"2021-08-29T20:22:27.5685513Z","@mt":"{StartMessage} [Timing {TimingId}]","StartMessage":"Loading media from database","TimingId":"bae41d0","SourceContext":"Umbraco.Cms.Core.Logging.ProfilingLogger","RequestId":"8000003e-000a-ff00-b63f-84710c7967bb","RequestPath":"/","ProcessId":2284,"ProcessName":"iisexpress","ThreadId":16,"AppDomainId":1,"AppDomainAppId":"1317b4e1457b8b3d80d9fc74a5657c5870271dda","MachineName":"LAPTOP-P8HSFIHG","Log4NetLevel":"INFO ","HttpRequestId":"c6b14037-1ee5-47f3-8301-83f58a2d5e6c","HttpRequestNumber":1,"HttpSessionId":"0"}
{"@t":"2021-08-29T20:22:27.6509439Z","@mt":"{EndMessage} ({Duration}ms) [Timing {TimingId}]","EndMessage":"Completed.","Duration":82,"TimingId":"bae41d0","SourceContext":"Umbraco.Cms.Core.Logging.ProfilingLogger","RequestId":"8000003e-000a-ff00-b63f-84710c7967bb","RequestPath":"/","ProcessId":2284,"ProcessName":"iisexpress","ThreadId":16,"AppDomainId":1,"AppDomainAppId":"1317b4e1457b8b3d80d9fc74a5657c5870271dda","MachineName":"LAPTOP-P8HSFIHG","Log4NetLevel":"INFO ","HttpRequestId":"c6b14037-1ee5-47f3-8301-83f58a2d5e6c","HttpRequestNumber":1,"HttpSessionId":"0"}
{"@t":"2021-08-29T20:23:28.1093594Z","@mt":"Acquiring.","SourceContext":"Umbraco.Cms.Core.Runtime.MainDom","ProcessId":4764,"ProcessName":"iisexpress","ThreadId":1,"AppDomainId":1,"AppDomainAppId":"1317b4e1457b8b3d80d9fc74a5657c5870271dda","MachineName":"LAPTOP-P8HSFIHG","Log4NetLevel":"INFO "}
{"@t":"2021-08-29T20:23:28.1213718Z","@mt":"Acquired.","SourceContext":"Umbraco.Cms.Core.Runtime.MainDom","ProcessId":4764,"ProcessName":"iisexpress","ThreadId":1,"AppDomainId":1,"AppDomainAppId":"1317b4e1457b8b3d80d9fc74a5657c5870271dda","MachineName":"LAPTOP-P8HSFIHG","Log4NetLevel":"INFO "}
{"@t":"2021-08-29T20:23:29.5527964Z","@mt":"Application started. Press Ctrl+C to shut down.","SourceContext":"Microsoft.Hosting.Lifetime","ProcessId":4764,"ProcessName":"iisexpress","ThreadId":1,"AppDomainId":1,"AppDomainAppId":"1317b4e1457b8b3d80d9fc74a5657c5870271dda","MachineName":"LAPTOP-P8HSFIHG","Log4NetLevel":"INFO "}
{"@t":"2021-08-29T20:23:29.5529732Z","@mt":"Hosting environment: {envName}","envName":"Development","SourceContext":"Microsoft.Hosting.Lifetime","ProcessId":4764,"ProcessName":"iisexpress","ThreadId":1,"AppDomainId":1,"AppDomainAppId":"1317b4e1457b8b3d80d9fc74a5657c5870271dda","MachineName":"LAPTOP-P8HSFIHG","Log4NetLevel":"INFO "}
{"@t":"2021-08-29T20:23:29.5531638Z","@mt":"Content root path: {contentRoot}","contentRoot":"C:\\Projects\\UmbracoHowTo\\ourumbraco","SourceContext":"Microsoft.Hosting.Lifetime","ProcessId":4764,"ProcessName":"iisexpress","ThreadId":1,"AppDomainId":1,"AppDomainAppId":"1317b4e1457b8b3d80d9fc74a5657c5870271dda","MachineName":"LAPTOP-P8HSFIHG","Log4NetLevel":"INFO "}
{"@t":"2021-08-29T20:23:29.9232137Z","@mt":"Umbraco must install or upgrade.","@l":"Warning","SourceContext":"Umbraco.Cms.Web.BackOffice.Install.InstallController","ActionId":"cbaa560e-ea78-43c5-a911-dd85af1139ab","ActionName":"Umbraco.Cms.Web.BackOffice.Install.InstallController.Redirect (Umbraco.Web.BackOffice)","RequestId":"80000095-0000-ff00-b63f-84710c7967bb","RequestPath":"/","ProcessId":4764,"ProcessName":"iisexpress","ThreadId":14,"AppDomainId":1,"AppDomainAppId":"1317b4e1457b8b3d80d9fc74a5657c5870271dda","MachineName":"LAPTOP-P8HSFIHG","Log4NetLevel":"WARN ","HttpRequestId":"1be344cc-f91c-4435-bebc-c0342f15743f","HttpRequestNumber":1,"HttpSessionId":"bb3af916-937d-b235-ab39-68d4fd62e553"}
{"@t":"2021-08-29T20:23:52.2469669Z","@mt":"Last synced Id found {LastSyncedId} but was not found in the database. This generally means this server/install  has been idle for too long and the instructions in the database have been pruned. A cold boot will be triggered.","@l":"Warning","LastSyncedId":51,"SourceContext":"Umbraco.Cms.Infrastructure.Sync.SyncBootStateAccessor","ActionId":"dba737fd-df7c-46b6-b3f8-faa4d4f6b9cd","ActionName":"Umbraco.Cms.Web.BackOffice.Controllers.AuthenticationController.PostLogin (Umbraco.Web.BackOffice)","RequestId":"8000000a-000b-f600-b63f-84710c7967bb","RequestPath":"/umbraco/backoffice/umbracoapi/authentication/PostLogin","ProcessId":4764,"ProcessName":"iisexpress","ThreadId":4,"AppDomainId":1,"AppDomainAppId":"1317b4e1457b8b3d80d9fc74a5657c5870271dda","MachineName":"LAPTOP-P8HSFIHG","Log4NetLevel":"WARN ","HttpRequestId":"d9ad8209-d1e0-4e5c-b125-f443fa9868f9","HttpRequestNumber":2,"HttpSessionId":"dc36c0bc-fbcd-2dd3-c3b6-1bf71350a3ea"}
{"@t":"2021-08-29T20:23:58.0298791Z","@mt":"{StartMessage} [Timing {TimingId}]","StartMessage":"Executing installation step: 'Permissions'.","TimingId":"bd9f3d5","SourceContext":"Umbraco.Cms.Core.Logging.ProfilingLogger","ActionId":"1333212d-d6eb-4005-838d-d7f5dc3f35ab","ActionName":"Umbraco.Cms.Web.BackOffice.Install.InstallApiController.PostPerformInstall (Umbraco.Web.BackOffice)","RequestId":"800000b1-0008-fc00-b63f-84710c7967bb","RequestPath":"/install/api/PostPerformInstall","ProcessId":4764,"ProcessName":"iisexpress","ThreadId":13,"AppDomainId":1,"AppDomainAppId":"1317b4e1457b8b3d80d9fc74a5657c5870271dda","MachineName":"LAPTOP-P8HSFIHG","Log4NetLevel":"INFO ","HttpRequestId":"6e46ad21-8534-4d31-9d1b-379a060d669a","HttpRequestNumber":3,"HttpSessionId":"550c2688-4b8e-2825-a743-2cdc2b09715c"}
{"@t":"2021-08-29T20:23:58.0487398Z","@mt":"{EndMessage} ({Duration}ms) [Timing {TimingId}]","EndMessage":"Step completed","Duration":18,"TimingId":"bd9f3d5","SourceContext":"Umbraco.Cms.Core.Logging.ProfilingLogger","ActionId":"1333212d-d6eb-4005-838d-d7f5dc3f35ab","ActionName":"Umbraco.Cms.Web.BackOffice.Install.InstallApiController.PostPerformInstall (Umbraco.Web.BackOffice)","RequestId":"800000b1-0008-fc00-b63f-84710c7967bb","RequestPath":"/install/api/PostPerformInstall","ProcessId":4764,"ProcessName":"iisexpress","ThreadId":13,"AppDomainId":1,"AppDomainAppId":"1317b4e1457b8b3d80d9fc74a5657c5870271dda","MachineName":"LAPTOP-P8HSFIHG","Log4NetLevel":"INFO ","HttpRequestId":"6e46ad21-8534-4d31-9d1b-379a060d669a","HttpRequestNumber":3,"HttpSessionId":"550c2688-4b8e-2825-a743-2cdc2b09715c"}
{"@t":"2021-08-29T20:23:58.0901609Z","@mt":"{StartMessage} [Timing {TimingId}]","StartMessage":"Executing installation step: 'Upgrade'.","TimingId":"585460d","SourceContext":"Umbraco.Cms.Core.Logging.ProfilingLogger","ActionId":"1333212d-d6eb-4005-838d-d7f5dc3f35ab","ActionName":"Umbraco.Cms.Web.BackOffice.Install.InstallApiController.PostPerformInstall (Umbraco.Web.BackOffice)","RequestId":"800000b3-0008-fc00-b63f-84710c7967bb","RequestPath":"/install/api/PostPerformInstall","ProcessId":4764,"ProcessName":"iisexpress","ThreadId":20,"AppDomainId":1,"AppDomainAppId":"1317b4e1457b8b3d80d9fc74a5657c5870271dda","MachineName":"LAPTOP-P8HSFIHG","Log4NetLevel":"INFO ","HttpRequestId":"f31ca013-084a-43c6-8e0c-d5805eacf670","HttpRequestNumber":4,"HttpSessionId":"2cc0d8ba-e013-4d25-3301-fd1136ca7768"}
{"@t":"2021-08-29T20:23:58.0903926Z","@mt":"{EndMessage} ({Duration}ms) [Timing {TimingId}]","EndMessage":"Step completed","Duration":0,"TimingId":"585460d","SourceContext":"Umbraco.Cms.Core.Logging.ProfilingLogger","ActionId":"1333212d-d6eb-4005-838d-d7f5dc3f35ab","ActionName":"Umbraco.Cms.Web.BackOffice.Install.InstallApiController.PostPerformInstall (Umbraco.Web.BackOffice)","RequestId":"800000b3-0008-fc00-b63f-84710c7967bb","RequestPath":"/install/api/PostPerformInstall","ProcessId":4764,"ProcessName":"iisexpress","ThreadId":20,"AppDomainId":1,"AppDomainAppId":"1317b4e1457b8b3d80d9fc74a5657c5870271dda","MachineName":"LAPTOP-P8HSFIHG","Log4NetLevel":"INFO ","HttpRequestId":"f31ca013-084a-43c6-8e0c-d5805eacf670","HttpRequestNumber":4,"HttpSessionId":"2cc0d8ba-e013-4d25-3301-fd1136ca7768"}
{"@t":"2021-08-29T20:23:58.1192824Z","@mt":"{StartMessage} [Timing {TimingId}]","StartMessage":"Executing installation step: 'DatabaseInstall'.","TimingId":"f0e0fdf","SourceContext":"Umbraco.Cms.Core.Logging.ProfilingLogger","ActionId":"1333212d-d6eb-4005-838d-d7f5dc3f35ab","ActionName":"Umbraco.Cms.Web.BackOffice.Install.InstallApiController.PostPerformInstall (Umbraco.Web.BackOffice)","RequestId":"800000b5-0008-fc00-b63f-84710c7967bb","RequestPath":"/install/api/PostPerformInstall","ProcessId":4764,"ProcessName":"iisexpress","ThreadId":19,"AppDomainId":1,"AppDomainAppId":"1317b4e1457b8b3d80d9fc74a5657c5870271dda","MachineName":"LAPTOP-P8HSFIHG","Log4NetLevel":"INFO ","HttpRequestId":"6770e17f-7ca8-400e-b9e8-9f7d2121c134","HttpRequestNumber":5,"HttpSessionId":"43601c7e-ece5-afaa-303a-e705270026cc"}
{"@t":"2021-08-29T20:23:58.1388114Z","@mt":"Database configuration status: Started","SourceContext":"Umbraco.Cms.Infrastructure.Migrations.Install.DatabaseBuilder","ActionId":"1333212d-d6eb-4005-838d-d7f5dc3f35ab","ActionName":"Umbraco.Cms.Web.BackOffice.Install.InstallApiController.PostPerformInstall (Umbraco.Web.BackOffice)","RequestId":"800000b5-0008-fc00-b63f-84710c7967bb","RequestPath":"/install/api/PostPerformInstall","ProcessId":4764,"ProcessName":"iisexpress","ThreadId":19,"AppDomainId":1,"AppDomainAppId":"1317b4e1457b8b3d80d9fc74a5657c5870271dda","MachineName":"LAPTOP-P8HSFIHG","Log4NetLevel":"INFO ","HttpRequestId":"6770e17f-7ca8-400e-b9e8-9f7d2121c134","HttpRequestNumber":5,"HttpSessionId":"43601c7e-ece5-afaa-303a-e705270026cc"}
{"@t":"2021-08-29T20:23:58.1864748Z","@mt":"Database requires upgrade","SourceContext":"Umbraco.Cms.Infrastructure.Migrations.Install.DatabaseBuilder","ActionId":"1333212d-d6eb-4005-838d-d7f5dc3f35ab","ActionName":"Umbraco.Cms.Web.BackOffice.Install.InstallApiController.PostPerformInstall (Umbraco.Web.BackOffice)","RequestId":"800000b5-0008-fc00-b63f-84710c7967bb","RequestPath":"/install/api/PostPerformInstall","ProcessId":4764,"ProcessName":"iisexpress","ThreadId":19,"AppDomainId":1,"AppDomainAppId":"1317b4e1457b8b3d80d9fc74a5657c5870271dda","MachineName":"LAPTOP-P8HSFIHG","Log4NetLevel":"INFO ","HttpRequestId":"6770e17f-7ca8-400e-b9e8-9f7d2121c134","HttpRequestNumber":5,"HttpSessionId":"43601c7e-ece5-afaa-303a-e705270026cc"}
{"@t":"2021-08-29T20:23:58.1919182Z","@mt":"{EndMessage} ({Duration}ms) [Timing {TimingId}]","EndMessage":"Step completed","Duration":72,"TimingId":"f0e0fdf","SourceContext":"Umbraco.Cms.Core.Logging.ProfilingLogger","ActionId":"1333212d-d6eb-4005-838d-d7f5dc3f35ab","ActionName":"Umbraco.Cms.Web.BackOffice.Install.InstallApiController.PostPerformInstall (Umbraco.Web.BackOffice)","RequestId":"800000b5-0008-fc00-b63f-84710c7967bb","RequestPath":"/install/api/PostPerformInstall","ProcessId":4764,"ProcessName":"iisexpress","ThreadId":19,"AppDomainId":1,"AppDomainAppId":"1317b4e1457b8b3d80d9fc74a5657c5870271dda","MachineName":"LAPTOP-P8HSFIHG","Log4NetLevel":"INFO ","HttpRequestId":"6770e17f-7ca8-400e-b9e8-9f7d2121c134","HttpRequestNumber":5,"HttpSessionId":"43601c7e-ece5-afaa-303a-e705270026cc"}
{"@t":"2021-08-29T20:23:58.3208215Z","@mt":"{StartMessage} [Timing {TimingId}]","StartMessage":"Executing installation step: 'DatabaseUpgrade'.","TimingId":"f6f1ee5","SourceContext":"Umbraco.Cms.Core.Logging.ProfilingLogger","ActionId":"1333212d-d6eb-4005-838d-d7f5dc3f35ab","ActionName":"Umbraco.Cms.Web.BackOffice.Install.InstallApiController.PostPerformInstall (Umbraco.Web.BackOffice)","RequestId":"800000b7-0008-fc00-b63f-84710c7967bb","RequestPath":"/install/api/PostPerformInstall","ProcessId":4764,"ProcessName":"iisexpress","ThreadId":24,"AppDomainId":1,"AppDomainAppId":"1317b4e1457b8b3d80d9fc74a5657c5870271dda","MachineName":"LAPTOP-P8HSFIHG","Log4NetLevel":"INFO ","HttpRequestId":"97ffdb2d-73c5-437c-903e-9aefeb9b9e3c","HttpRequestNumber":6,"HttpSessionId":"71e39254-bf5c-f238-cfd1-86dc8fe099e0"}
{"@t":"2021-08-29T20:23:58.3217411Z","@mt":"Running 'Upgrade' service","SourceContext":"Umbraco.Cms.Infrastructure.Install.InstallSteps.DatabaseUpgradeStep","ActionId":"1333212d-d6eb-4005-838d-d7f5dc3f35ab","ActionName":"Umbraco.Cms.Web.BackOffice.Install.InstallApiController.PostPerformInstall (Umbraco.Web.BackOffice)","RequestId":"800000b7-0008-fc00-b63f-84710c7967bb","RequestPath":"/install/api/PostPerformInstall","ProcessId":4764,"ProcessName":"iisexpress","ThreadId":24,"AppDomainId":1,"AppDomainAppId":"1317b4e1457b8b3d80d9fc74a5657c5870271dda","MachineName":"LAPTOP-P8HSFIHG","Log4NetLevel":"INFO ","HttpRequestId":"97ffdb2d-73c5-437c-903e-9aefeb9b9e3c","HttpRequestNumber":6,"HttpSessionId":"71e39254-bf5c-f238-cfd1-86dc8fe099e0"}
{"@t":"2021-08-29T20:23:58.3413694Z","@mt":"Database upgrade started","SourceContext":"Umbraco.Cms.Infrastructure.Migrations.Install.DatabaseBuilder","ActionId":"1333212d-d6eb-4005-838d-d7f5dc3f35ab","ActionName":"Umbraco.Cms.Web.BackOffice.Install.InstallApiController.PostPerformInstall (Umbraco.Web.BackOffice)","RequestId":"800000b7-0008-fc00-b63f-84710c7967bb","RequestPath":"/install/api/PostPerformInstall","ProcessId":4764,"ProcessName":"iisexpress","ThreadId":24,"AppDomainId":1,"AppDomainAppId":"1317b4e1457b8b3d80d9fc74a5657c5870271dda","MachineName":"LAPTOP-P8HSFIHG","Log4NetLevel":"INFO ","HttpRequestId":"97ffdb2d-73c5-437c-903e-9aefeb9b9e3c","HttpRequestNumber":6,"HttpSessionId":"71e39254-bf5c-f238-cfd1-86dc8fe099e0"}
{"@t":"2021-08-29T20:23:58.3646170Z","@mt":"Starting '{MigrationName}'...","MigrationName":"Umbraco.Core","SourceContext":"Umbraco.Cms.Infrastructure.Migrations.MigrationPlanExecutor","ActionId":"1333212d-d6eb-4005-838d-d7f5dc3f35ab","ActionName":"Umbraco.Cms.Web.BackOffice.Install.InstallApiController.PostPerformInstall (Umbraco.Web.BackOffice)","RequestId":"800000b7-0008-fc00-b63f-84710c7967bb","RequestPath":"/install/api/PostPerformInstall","ProcessId":4764,"ProcessName":"iisexpress","ThreadId":24,"AppDomainId":1,"AppDomainAppId":"1317b4e1457b8b3d80d9fc74a5657c5870271dda","MachineName":"LAPTOP-P8HSFIHG","Log4NetLevel":"INFO ","HttpRequestId":"97ffdb2d-73c5-437c-903e-9aefeb9b9e3c","HttpRequestNumber":6,"HttpSessionId":"71e39254-bf5c-f238-cfd1-86dc8fe099e0"}
{"@t":"2021-08-29T20:23:58.3646663Z","@mt":"At {OrigState}","OrigState":"{4695D0C9-0729-4976-985B-048D503665D8}","SourceContext":"Umbraco.Cms.Infrastructure.Migrations.MigrationPlanExecutor","ActionId":"1333212d-d6eb-4005-838d-d7f5dc3f35ab","ActionName":"Umbraco.Cms.Web.BackOffice.Install.InstallApiController.PostPerformInstall (Umbraco.Web.BackOffice)","RequestId":"800000b7-0008-fc00-b63f-84710c7967bb","RequestPath":"/install/api/PostPerformInstall","ProcessId":4764,"ProcessName":"iisexpress","ThreadId":24,"AppDomainId":1,"AppDomainAppId":"1317b4e1457b8b3d80d9fc74a5657c5870271dda","MachineName":"LAPTOP-P8HSFIHG","Log4NetLevel":"INFO ","HttpRequestId":"97ffdb2d-73c5-437c-903e-9aefeb9b9e3c","HttpRequestNumber":6,"HttpSessionId":"71e39254-bf5c-f238-cfd1-86dc8fe099e0"}
{"@t":"2021-08-29T20:23:58.3651681Z","@mt":"Execute {MigrationType}","MigrationType":"UpdateCmsPropertyGroupIdSeed","SourceContext":"Umbraco.Cms.Infrastructure.Migrations.MigrationPlanExecutor","ActionId":"1333212d-d6eb-4005-838d-d7f5dc3f35ab","ActionName":"Umbraco.Cms.Web.BackOffice.Install.InstallApiController.PostPerformInstall (Umbraco.Web.BackOffice)","RequestId":"800000b7-0008-fc00-b63f-84710c7967bb","RequestPath":"/install/api/PostPerformInstall","ProcessId":4764,"ProcessName":"iisexpress","ThreadId":24,"AppDomainId":1,"AppDomainAppId":"1317b4e1457b8b3d80d9fc74a5657c5870271dda","MachineName":"LAPTOP-P8HSFIHG","Log4NetLevel":"INFO ","HttpRequestId":"97ffdb2d-73c5-437c-903e-9aefeb9b9e3c","HttpRequestNumber":6,"HttpSessionId":"71e39254-bf5c-f238-cfd1-86dc8fe099e0"}
{"@t":"2021-08-29T20:23:58.3668843Z","@mt":"At {OrigState}","OrigState":"{5C424554-A32D-4852-8ED1-A13508187901}","SourceContext":"Umbraco.Cms.Infrastructure.Migrations.MigrationPlanExecutor","ActionId":"1333212d-d6eb-4005-838d-d7f5dc3f35ab","ActionName":"Umbraco.Cms.Web.BackOffice.Install.InstallApiController.PostPerformInstall (Umbraco.Web.BackOffice)","RequestId":"800000b7-0008-fc00-b63f-84710c7967bb","RequestPath":"/install/api/PostPerformInstall","ProcessId":4764,"ProcessName":"iisexpress","ThreadId":24,"AppDomainId":1,"AppDomainAppId":"1317b4e1457b8b3d80d9fc74a5657c5870271dda","MachineName":"LAPTOP-P8HSFIHG","Log4NetLevel":"INFO ","HttpRequestId":"97ffdb2d-73c5-437c-903e-9aefeb9b9e3c","HttpRequestNumber":6,"HttpSessionId":"71e39254-bf5c-f238-cfd1-86dc8fe099e0"}
{"@t":"2021-08-29T20:23:58.3669189Z","@mt":"Execute {MigrationType}","MigrationType":"MigrateLogViewerQueriesFromFileToDb","SourceContext":"Umbraco.Cms.Infrastructure.Migrations.MigrationPlanExecutor","ActionId":"1333212d-d6eb-4005-838d-d7f5dc3f35ab","ActionName":"Umbraco.Cms.Web.BackOffice.Install.InstallApiController.PostPerformInstall (Umbraco.Web.BackOffice)","RequestId":"800000b7-0008-fc00-b63f-84710c7967bb","RequestPath":"/install/api/PostPerformInstall","ProcessId":4764,"ProcessName":"iisexpress","ThreadId":24,"AppDomainId":1,"AppDomainAppId":"1317b4e1457b8b3d80d9fc74a5657c5870271dda","MachineName":"LAPTOP-P8HSFIHG","Log4NetLevel":"INFO ","HttpRequestId":"97ffdb2d-73c5-437c-903e-9aefeb9b9e3c","HttpRequestNumber":6,"HttpSessionId":"71e39254-bf5c-f238-cfd1-86dc8fe099e0"}
{"@t":"2021-08-29T20:23:58.3810975Z","@mt":"SQL [{ContextIndex}]: {Sql}","ContextIndex":0,"Sql":"CREATE TABLE [umbracoLogViewerQuery] ([id] INTEGER NOT NULL IDENTITY(1,1),[name] NVARCHAR(255) NOT NULL,[query] NVARCHAR(255) NOT NULL)","SourceContext":"Umbraco.Cms.Infrastructure.Migrations.MigrationContext","ActionId":"1333212d-d6eb-4005-838d-d7f5dc3f35ab","ActionName":"Umbraco.Cms.Web.BackOffice.Install.InstallApiController.PostPerformInstall (Umbraco.Web.BackOffice)","RequestId":"800000b7-0008-fc00-b63f-84710c7967bb","RequestPath":"/install/api/PostPerformInstall","ProcessId":4764,"ProcessName":"iisexpress","ThreadId":24,"AppDomainId":1,"AppDomainAppId":"1317b4e1457b8b3d80d9fc74a5657c5870271dda","MachineName":"LAPTOP-P8HSFIHG","Log4NetLevel":"INFO ","HttpRequestId":"97ffdb2d-73c5-437c-903e-9aefeb9b9e3c","HttpRequestNumber":6,"HttpSessionId":"71e39254-bf5c-f238-cfd1-86dc8fe099e0"}
{"@t":"2021-08-29T20:23:58.3821610Z","@mt":"SQL [{ContextIndex}]: {Sql}","ContextIndex":1,"Sql":"ALTER TABLE [umbracoLogViewerQuery] ADD CONSTRAINT [PK_umbracoLogViewerQuery] PRIMARY KEY ([id])","SourceContext":"Umbraco.Cms.Infrastructure.Migrations.MigrationContext","ActionId":"1333212d-d6eb-4005-838d-d7f5dc3f35ab","ActionName":"Umbraco.Cms.Web.BackOffice.Install.InstallApiController.PostPerformInstall (Umbraco.Web.BackOffice)","RequestId":"800000b7-0008-fc00-b63f-84710c7967bb","RequestPath":"/install/api/PostPerformInstall","ProcessId":4764,"ProcessName":"iisexpress","ThreadId":24,"AppDomainId":1,"AppDomainAppId":"1317b4e1457b8b3d80d9fc74a5657c5870271dda","MachineName":"LAPTOP-P8HSFIHG","Log4NetLevel":"INFO ","HttpRequestId":"97ffdb2d-73c5-437c-903e-9aefeb9b9e3c","HttpRequestNumber":6,"HttpSessionId":"71e39254-bf5c-f238-cfd1-86dc8fe099e0"}
{"@t":"2021-08-29T20:23:58.3852633Z","@mt":"SQL [{ContextIndex}]: {Sql}","ContextIndex":2,"Sql":"CREATE UNIQUE NONCLUSTERED INDEX [IX_LogViewerQuery_name] ON [umbracoLogViewerQuery] ([name])","SourceContext":"Umbraco.Cms.Infrastructure.Migrations.MigrationContext","ActionId":"1333212d-d6eb-4005-838d-d7f5dc3f35ab","ActionName":"Umbraco.Cms.Web.BackOffice.Install.InstallApiController.PostPerformInstall (Umbraco.Web.BackOffice)","RequestId":"800000b7-0008-fc00-b63f-84710c7967bb","RequestPath":"/install/api/PostPerformInstall","ProcessId":4764,"ProcessName":"iisexpress","ThreadId":24,"AppDomainId":1,"AppDomainAppId":"1317b4e1457b8b3d80d9fc74a5657c5870271dda","MachineName":"LAPTOP-P8HSFIHG","Log4NetLevel":"INFO ","HttpRequestId":"97ffdb2d-73c5-437c-903e-9aefeb9b9e3c","HttpRequestNumber":6,"HttpSessionId":"71e39254-bf5c-f238-cfd1-86dc8fe099e0"}
{"@t":"2021-08-29T20:23:58.3991760Z","@mt":"At {OrigState}","OrigState":"{A1B56FDB-3F8F-4A77-B94D-3E2CB08E8E1B}","SourceContext":"Umbraco.Cms.Infrastructure.Migrations.MigrationPlanExecutor","ActionId":"1333212d-d6eb-4005-838d-d7f5dc3f35ab","ActionName":"Umbraco.Cms.Web.BackOffice.Install.InstallApiController.PostPerformInstall (Umbraco.Web.BackOffice)","RequestId":"800000b7-0008-fc00-b63f-84710c7967bb","RequestPath":"/install/api/PostPerformInstall","ProcessId":4764,"ProcessName":"iisexpress","ThreadId":24,"AppDomainId":1,"AppDomainAppId":"1317b4e1457b8b3d80d9fc74a5657c5870271dda","MachineName":"LAPTOP-P8HSFIHG","Log4NetLevel":"INFO ","HttpRequestId":"97ffdb2d-73c5-437c-903e-9aefeb9b9e3c","HttpRequestNumber":6,"HttpSessionId":"71e39254-bf5c-f238-cfd1-86dc8fe099e0"}
{"@t":"2021-08-29T20:23:58.3992221Z","@mt":"Execute {MigrationType}","MigrationType":"ExternalLoginTableIndexes","SourceContext":"Umbraco.Cms.Infrastructure.Migrations.MigrationPlanExecutor","ActionId":"1333212d-d6eb-4005-838d-d7f5dc3f35ab","ActionName":"Umbraco.Cms.Web.BackOffice.Install.InstallApiController.PostPerformInstall (Umbraco.Web.BackOffice)","RequestId":"800000b7-0008-fc00-b63f-84710c7967bb","RequestPath":"/install/api/PostPerformInstall","ProcessId":4764,"ProcessName":"iisexpress","ThreadId":24,"AppDomainId":1,"AppDomainAppId":"1317b4e1457b8b3d80d9fc74a5657c5870271dda","MachineName":"LAPTOP-P8HSFIHG","Log4NetLevel":"INFO ","HttpRequestId":"97ffdb2d-73c5-437c-903e-9aefeb9b9e3c","HttpRequestNumber":6,"HttpSessionId":"71e39254-bf5c-f238-cfd1-86dc8fe099e0"}
{"@t":"2021-08-29T20:23:58.4280317Z","@mt":"SQL [{ContextIndex}]: {Sql}","ContextIndex":3,"Sql":"CREATE NONCLUSTERED INDEX [IX_umbracoExternalLogin_LoginProvider] ON [umbracoExternalLogin] ([loginProvider])","SourceContext":"Umbraco.Cms.Infrastructure.Migrations.MigrationContext","ActionId":"1333212d-d6eb-4005-838d-d7f5dc3f35ab","ActionName":"Umbraco.Cms.Web.BackOffice.Install.InstallApiController.PostPerformInstall (Umbraco.Web.BackOffice)","RequestId":"800000b7-0008-fc00-b63f-84710c7967bb","RequestPath":"/install/api/PostPerformInstall","ProcessId":4764,"ProcessName":"iisexpress","ThreadId":24,"AppDomainId":1,"AppDomainAppId":"1317b4e1457b8b3d80d9fc74a5657c5870271dda","MachineName":"LAPTOP-P8HSFIHG","Log4NetLevel":"INFO ","HttpRequestId":"97ffdb2d-73c5-437c-903e-9aefeb9b9e3c","HttpRequestNumber":6,"HttpSessionId":"71e39254-bf5c-f238-cfd1-86dc8fe099e0"}
{"@t":"2021-08-29T20:23:58.4311909Z","@mt":"SQL [{ContextIndex}]: {Sql}","ContextIndex":4,"Sql":"CREATE NONCLUSTERED INDEX [IX_umbracoExternalLogin_ProviderKey] ON [umbracoExternalLogin] ([loginProvider],[providerKey])","SourceContext":"Umbraco.Cms.Infrastructure.Migrations.MigrationContext","ActionId":"1333212d-d6eb-4005-838d-d7f5dc3f35ab","ActionName":"Umbraco.Cms.Web.BackOffice.Install.InstallApiController.PostPerformInstall (Umbraco.Web.BackOffice)","RequestId":"800000b7-0008-fc00-b63f-84710c7967bb","RequestPath":"/install/api/PostPerformInstall","ProcessId":4764,"ProcessName":"iisexpress","ThreadId":24,"AppDomainId":1,"AppDomainAppId":"1317b4e1457b8b3d80d9fc74a5657c5870271dda","MachineName":"LAPTOP-P8HSFIHG","Log4NetLevel":"INFO ","HttpRequestId":"97ffdb2d-73c5-437c-903e-9aefeb9b9e3c","HttpRequestNumber":6,"HttpSessionId":"71e39254-bf5c-f238-cfd1-86dc8fe099e0"}
{"@t":"2021-08-29T20:23:58.4319469Z","@mt":"At {OrigState}","OrigState":"{2150DAD3-F5BA-451D-9BBC-C036924AEB39}","SourceContext":"Umbraco.Cms.Infrastructure.Migrations.MigrationPlanExecutor","ActionId":"1333212d-d6eb-4005-838d-d7f5dc3f35ab","ActionName":"Umbraco.Cms.Web.BackOffice.Install.InstallApiController.PostPerformInstall (Umbraco.Web.BackOffice)","RequestId":"800000b7-0008-fc00-b63f-84710c7967bb","RequestPath":"/install/api/PostPerformInstall","ProcessId":4764,"ProcessName":"iisexpress","ThreadId":24,"AppDomainId":1,"AppDomainAppId":"1317b4e1457b8b3d80d9fc74a5657c5870271dda","MachineName":"LAPTOP-P8HSFIHG","Log4NetLevel":"INFO ","HttpRequestId":"97ffdb2d-73c5-437c-903e-9aefeb9b9e3c","HttpRequestNumber":6,"HttpSessionId":"71e39254-bf5c-f238-cfd1-86dc8fe099e0"}
{"@t":"2021-08-29T20:23:58.4320472Z","@mt":"Execute {MigrationType}","MigrationType":"ExternalLoginTokenTable","SourceContext":"Umbraco.Cms.Infrastructure.Migrations.MigrationPlanExecutor","ActionId":"1333212d-d6eb-4005-838d-d7f5dc3f35ab","ActionName":"Umbraco.Cms.Web.BackOffice.Install.InstallApiController.PostPerformInstall (Umbraco.Web.BackOffice)","RequestId":"800000b7-0008-fc00-b63f-84710c7967bb","RequestPath":"/install/api/PostPerformInstall","ProcessId":4764,"ProcessName":"iisexpress","ThreadId":24,"AppDomainId":1,"AppDomainAppId":"1317b4e1457b8b3d80d9fc74a5657c5870271dda","MachineName":"LAPTOP-P8HSFIHG","Log4NetLevel":"INFO ","HttpRequestId":"97ffdb2d-73c5-437c-903e-9aefeb9b9e3c","HttpRequestNumber":6,"HttpSessionId":"71e39254-bf5c-f238-cfd1-86dc8fe099e0"}
{"@t":"2021-08-29T20:23:58.4344663Z","@mt":"SQL [{ContextIndex}]: {Sql}","ContextIndex":5,"Sql":"CREATE TABLE [umbracoExternalLoginToken] ([id] INTEGER NOT NULL IDENTITY(1,1),[externalLoginId] INTEGER NOT NULL,[name] NVARCHAR(255) NOT NULL,[value] NTEXT NOT NULL,[createDate] DATETIME NOT NULL CONSTRAINT [DF_umbracoExternalLoginToken_createDate] DEFAULT (GETDATE()))","SourceContext":"Umbraco.Cms.Infrastructure.Migrations.MigrationContext","ActionId":"1333212d-d6eb-4005-838d-d7f5dc3f35ab","ActionName":"Umbraco.Cms.Web.BackOffice.Install.InstallApiController.PostPerformInstall (Umbraco.Web.BackOffice)","RequestId":"800000b7-0008-fc00-b63f-84710c7967bb","RequestPath":"/install/api/PostPerformInstall","ProcessId":4764,"ProcessName":"iisexpress","ThreadId":24,"AppDomainId":1,"AppDomainAppId":"1317b4e1457b8b3d80d9fc74a5657c5870271dda","MachineName":"LAPTOP-P8HSFIHG","Log4NetLevel":"INFO ","HttpRequestId":"97ffdb2d-73c5-437c-903e-9aefeb9b9e3c","HttpRequestNumber":6,"HttpSessionId":"71e39254-bf5c-f238-cfd1-86dc8fe099e0"}
{"@t":"2021-08-29T20:23:58.4346972Z","@mt":"SQL [{ContextIndex}]: {Sql}","ContextIndex":6,"Sql":"ALTER TABLE [umbracoExternalLoginToken] ADD CONSTRAINT [PK_umbracoExternalLoginToken] PRIMARY KEY ([id])","SourceContext":"Umbraco.Cms.Infrastructure.Migrations.MigrationContext","ActionId":"1333212d-d6eb-4005-838d-d7f5dc3f35ab","ActionName":"Umbraco.Cms.Web.BackOffice.Install.InstallApiController.PostPerformInstall (Umbraco.Web.BackOffice)","RequestId":"800000b7-0008-fc00-b63f-84710c7967bb","RequestPath":"/install/api/PostPerformInstall","ProcessId":4764,"ProcessName":"iisexpress","ThreadId":24,"AppDomainId":1,"AppDomainAppId":"1317b4e1457b8b3d80d9fc74a5657c5870271dda","MachineName":"LAPTOP-P8HSFIHG","Log4NetLevel":"INFO ","HttpRequestId":"97ffdb2d-73c5-437c-903e-9aefeb9b9e3c","HttpRequestNumber":6,"HttpSessionId":"71e39254-bf5c-f238-cfd1-86dc8fe099e0"}
{"@t":"2021-08-29T20:23:58.4357705Z","@mt":"SQL [{ContextIndex}]: {Sql}","ContextIndex":7,"Sql":"ALTER TABLE [umbracoExternalLoginToken] ADD CONSTRAINT [FK_umbracoExternalLoginToken_umbracoExternalLogin_id] FOREIGN KEY ([externalLoginId]) REFERENCES [umbracoExternalLogin] ([id])","SourceContext":"Umbraco.Cms.Infrastructure.Migrations.MigrationContext","ActionId":"1333212d-d6eb-4005-838d-d7f5dc3f35ab","ActionName":"Umbraco.Cms.Web.BackOffice.Install.InstallApiController.PostPerformInstall (Umbraco.Web.BackOffice)","RequestId":"800000b7-0008-fc00-b63f-84710c7967bb","RequestPath":"/install/api/PostPerformInstall","ProcessId":4764,"ProcessName":"iisexpress","ThreadId":24,"AppDomainId":1,"AppDomainAppId":"1317b4e1457b8b3d80d9fc74a5657c5870271dda","MachineName":"LAPTOP-P8HSFIHG","Log4NetLevel":"INFO ","HttpRequestId":"97ffdb2d-73c5-437c-903e-9aefeb9b9e3c","HttpRequestNumber":6,"HttpSessionId":"71e39254-bf5c-f238-cfd1-86dc8fe099e0"}
{"@t":"2021-08-29T20:23:58.4358924Z","@mt":"SQL [{ContextIndex}]: {Sql}","ContextIndex":8,"Sql":"CREATE UNIQUE NONCLUSTERED INDEX [IX_umbracoExternalLoginToken_Name] ON [umbracoExternalLoginToken] ([externalLoginId],[name])","SourceContext":"Umbraco.Cms.Infrastructure.Migrations.MigrationContext","ActionId":"1333212d-d6eb-4005-838d-d7f5dc3f35ab","ActionName":"Umbraco.Cms.Web.BackOffice.Install.InstallApiController.PostPerformInstall (Umbraco.Web.BackOffice)","RequestId":"800000b7-0008-fc00-b63f-84710c7967bb","RequestPath":"/install/api/PostPerformInstall","ProcessId":4764,"ProcessName":"iisexpress","ThreadId":24,"AppDomainId":1,"AppDomainAppId":"1317b4e1457b8b3d80d9fc74a5657c5870271dda","MachineName":"LAPTOP-P8HSFIHG","Log4NetLevel":"INFO ","HttpRequestId":"97ffdb2d-73c5-437c-903e-9aefeb9b9e3c","HttpRequestNumber":6,"HttpSessionId":"71e39254-bf5c-f238-cfd1-86dc8fe099e0"}
{"@t":"2021-08-29T20:23:58.4361643Z","@mt":"At {OrigState}","OrigState":"{C87F0AC4-F44C-4A17-A510-59EA9A35455B}","SourceContext":"Umbraco.Cms.Infrastructure.Migrations.MigrationPlanExecutor","ActionId":"1333212d-d6eb-4005-838d-d7f5dc3f35ab","ActionName":"Umbraco.Cms.Web.BackOffice.Install.InstallApiController.PostPerformInstall (Umbraco.Web.BackOffice)","RequestId":"800000b7-0008-fc00-b63f-84710c7967bb","RequestPath":"/install/api/PostPerformInstall","ProcessId":4764,"ProcessName":"iisexpress","ThreadId":24,"AppDomainId":1,"AppDomainAppId":"1317b4e1457b8b3d80d9fc74a5657c5870271dda","MachineName":"LAPTOP-P8HSFIHG","Log4NetLevel":"INFO ","HttpRequestId":"97ffdb2d-73c5-437c-903e-9aefeb9b9e3c","HttpRequestNumber":6,"HttpSessionId":"71e39254-bf5c-f238-cfd1-86dc8fe099e0"}
{"@t":"2021-08-29T20:23:58.4361883Z","@mt":"Execute {MigrationType}","MigrationType":"MemberTableColumns","SourceContext":"Umbraco.Cms.Infrastructure.Migrations.MigrationPlanExecutor","ActionId":"1333212d-d6eb-4005-838d-d7f5dc3f35ab","ActionName":"Umbraco.Cms.Web.BackOffice.Install.InstallApiController.PostPerformInstall (Umbraco.Web.BackOffice)","RequestId":"800000b7-0008-fc00-b63f-84710c7967bb","RequestPath":"/install/api/PostPerformInstall","ProcessId":4764,"ProcessName":"iisexpress","ThreadId":24,"AppDomainId":1,"AppDomainAppId":"1317b4e1457b8b3d80d9fc74a5657c5870271dda","MachineName":"LAPTOP-P8HSFIHG","Log4NetLevel":"INFO ","HttpRequestId":"97ffdb2d-73c5-437c-903e-9aefeb9b9e3c","HttpRequestNumber":6,"HttpSessionId":"71e39254-bf5c-f238-cfd1-86dc8fe099e0"}
{"@t":"2021-08-29T20:23:58.4467406Z","@mt":"SQL [{ContextIndex}]: {Sql}","ContextIndex":9,"Sql":"ALTER TABLE [cmsMember] ADD [securityStampToken] NVARCHAR(255) NULL","SourceContext":"Umbraco.Cms.Infrastructure.Migrations.MigrationContext","ActionId":"1333212d-d6eb-4005-838d-d7f5dc3f35ab","ActionName":"Umbraco.Cms.Web.BackOffice.Install.InstallApiController.PostPerformInstall (Umbraco.Web.BackOffice)","RequestId":"800000b7-0008-fc00-b63f-84710c7967bb","RequestPath":"/install/api/PostPerformInstall","ProcessId":4764,"ProcessName":"iisexpress","ThreadId":24,"AppDomainId":1,"AppDomainAppId":"1317b4e1457b8b3d80d9fc74a5657c5870271dda","MachineName":"LAPTOP-P8HSFIHG","Log4NetLevel":"INFO ","HttpRequestId":"97ffdb2d-73c5-437c-903e-9aefeb9b9e3c","HttpRequestNumber":6,"HttpSessionId":"71e39254-bf5c-f238-cfd1-86dc8fe099e0"}
{"@t":"2021-08-29T20:23:58.4515207Z","@mt":"SQL [{ContextIndex}]: {Sql}","ContextIndex":10,"Sql":"ALTER TABLE [cmsMember] ADD [emailConfirmedDate] DATETIME NULL","SourceContext":"Umbraco.Cms.Infrastructure.Migrations.MigrationContext","ActionId":"1333212d-d6eb-4005-838d-d7f5dc3f35ab","ActionName":"Umbraco.Cms.Web.BackOffice.Install.InstallApiController.PostPerformInstall (Umbraco.Web.BackOffice)","RequestId":"800000b7-0008-fc00-b63f-84710c7967bb","RequestPath":"/install/api/PostPerformInstall","ProcessId":4764,"ProcessName":"iisexpress","ThreadId":24,"AppDomainId":1,"AppDomainAppId":"1317b4e1457b8b3d80d9fc74a5657c5870271dda","MachineName":"LAPTOP-P8HSFIHG","Log4NetLevel":"INFO ","HttpRequestId":"97ffdb2d-73c5-437c-903e-9aefeb9b9e3c","HttpRequestNumber":6,"HttpSessionId":"71e39254-bf5c-f238-cfd1-86dc8fe099e0"}
{"@t":"2021-08-29T20:23:58.4516759Z","@mt":"At {OrigState}","OrigState":"{ED4EF9E3-BED5-445B-B950-DAF31166ADB0}","SourceContext":"Umbraco.Cms.Infrastructure.Migrations.MigrationPlanExecutor","ActionId":"1333212d-d6eb-4005-838d-d7f5dc3f35ab","ActionName":"Umbraco.Cms.Web.BackOffice.Install.InstallApiController.PostPerformInstall (Umbraco.Web.BackOffice)","RequestId":"800000b7-0008-fc00-b63f-84710c7967bb","RequestPath":"/install/api/PostPerformInstall","ProcessId":4764,"ProcessName":"iisexpress","ThreadId":24,"AppDomainId":1,"AppDomainAppId":"1317b4e1457b8b3d80d9fc74a5657c5870271dda","MachineName":"LAPTOP-P8HSFIHG","Log4NetLevel":"INFO ","HttpRequestId":"97ffdb2d-73c5-437c-903e-9aefeb9b9e3c","HttpRequestNumber":6,"HttpSessionId":"71e39254-bf5c-f238-cfd1-86dc8fe099e0"}
{"@t":"2021-08-29T20:23:58.4517099Z","@mt":"Execute {MigrationType}","MigrationType":"AddPasswordConfigToMemberTable","SourceContext":"Umbraco.Cms.Infrastructure.Migrations.MigrationPlanExecutor","ActionId":"1333212d-d6eb-4005-838d-d7f5dc3f35ab","ActionName":"Umbraco.Cms.Web.BackOffice.Install.InstallApiController.PostPerformInstall (Umbraco.Web.BackOffice)","RequestId":"800000b7-0008-fc00-b63f-84710c7967bb","RequestPath":"/install/api/PostPerformInstall","ProcessId":4764,"ProcessName":"iisexpress","ThreadId":24,"AppDomainId":1,"AppDomainAppId":"1317b4e1457b8b3d80d9fc74a5657c5870271dda","MachineName":"LAPTOP-P8HSFIHG","Log4NetLevel":"INFO ","HttpRequestId":"97ffdb2d-73c5-437c-903e-9aefeb9b9e3c","HttpRequestNumber":6,"HttpSessionId":"71e39254-bf5c-f238-cfd1-86dc8fe099e0"}
{"@t":"2021-08-29T20:23:58.4600153Z","@mt":"SQL [{ContextIndex}]: {Sql}","ContextIndex":11,"Sql":"ALTER TABLE [cmsMember] ADD [passwordConfig] NVARCHAR(500) NULL","SourceContext":"Umbraco.Cms.Infrastructure.Migrations.MigrationContext","ActionId":"1333212d-d6eb-4005-838d-d7f5dc3f35ab","ActionName":"Umbraco.Cms.Web.BackOffice.Install.InstallApiController.PostPerformInstall (Umbraco.Web.BackOffice)","RequestId":"800000b7-0008-fc00-b63f-84710c7967bb","RequestPath":"/install/api/PostPerformInstall","ProcessId":4764,"ProcessName":"iisexpress","ThreadId":24,"AppDomainId":1,"AppDomainAppId":"1317b4e1457b8b3d80d9fc74a5657c5870271dda","MachineName":"LAPTOP-P8HSFIHG","Log4NetLevel":"INFO ","HttpRequestId":"97ffdb2d-73c5-437c-903e-9aefeb9b9e3c","HttpRequestNumber":6,"HttpSessionId":"71e39254-bf5c-f238-cfd1-86dc8fe099e0"}
{"@t":"2021-08-29T20:23:58.4602127Z","@mt":"At {OrigState}","OrigState":"{609D0DE7-B61A-4DED-A747-00438361B83A}","SourceContext":"Umbraco.Cms.Infrastructure.Migrations.MigrationPlanExecutor","ActionId":"1333212d-d6eb-4005-838d-d7f5dc3f35ab","ActionName":"Umbraco.Cms.Web.BackOffice.Install.InstallApiController.PostPerformInstall (Umbraco.Web.BackOffice)","RequestId":"800000b7-0008-fc00-b63f-84710c7967bb","RequestPath":"/install/api/PostPerformInstall","ProcessId":4764,"ProcessName":"iisexpress","ThreadId":24,"AppDomainId":1,"AppDomainAppId":"1317b4e1457b8b3d80d9fc74a5657c5870271dda","MachineName":"LAPTOP-P8HSFIHG","Log4NetLevel":"INFO ","HttpRequestId":"97ffdb2d-73c5-437c-903e-9aefeb9b9e3c","HttpRequestNumber":6,"HttpSessionId":"71e39254-bf5c-f238-cfd1-86dc8fe099e0"}
{"@t":"2021-08-29T20:23:58.4602421Z","@mt":"Execute {MigrationType}","MigrationType":"NoopMigration","SourceContext":"Umbraco.Cms.Infrastructure.Migrations.MigrationPlanExecutor","ActionId":"1333212d-d6eb-4005-838d-d7f5dc3f35ab","ActionName":"Umbraco.Cms.Web.BackOffice.Install.InstallApiController.PostPerformInstall (Umbraco.Web.BackOffice)","RequestId":"800000b7-0008-fc00-b63f-84710c7967bb","RequestPath":"/install/api/PostPerformInstall","ProcessId":4764,"ProcessName":"iisexpress","ThreadId":24,"AppDomainId":1,"AppDomainAppId":"1317b4e1457b8b3d80d9fc74a5657c5870271dda","MachineName":"LAPTOP-P8HSFIHG","Log4NetLevel":"INFO ","HttpRequestId":"97ffdb2d-73c5-437c-903e-9aefeb9b9e3c","HttpRequestNumber":6,"HttpSessionId":"71e39254-bf5c-f238-cfd1-86dc8fe099e0"}
{"@t":"2021-08-29T20:23:58.4605215Z","@mt":"At {OrigState}","OrigState":"{5060F3D2-88BE-4D30-8755-CF51F28EAD12}","SourceContext":"Umbraco.Cms.Infrastructure.Migrations.MigrationPlanExecutor","ActionId":"1333212d-d6eb-4005-838d-d7f5dc3f35ab","ActionName":"Umbraco.Cms.Web.BackOffice.Install.InstallApiController.PostPerformInstall (Umbraco.Web.BackOffice)","RequestId":"800000b7-0008-fc00-b63f-84710c7967bb","RequestPath":"/install/api/PostPerformInstall","ProcessId":4764,"ProcessName":"iisexpress","ThreadId":24,"AppDomainId":1,"AppDomainAppId":"1317b4e1457b8b3d80d9fc74a5657c5870271dda","MachineName":"LAPTOP-P8HSFIHG","Log4NetLevel":"INFO ","HttpRequestId":"97ffdb2d-73c5-437c-903e-9aefeb9b9e3c","HttpRequestNumber":6,"HttpSessionId":"71e39254-bf5c-f238-cfd1-86dc8fe099e0"}
{"@t":"2021-08-29T20:23:58.4605626Z","@mt":"Execute {MigrationType}","MigrationType":"UpdateCmsPropertyGroupIdSeed","SourceContext":"Umbraco.Cms.Infrastructure.Migrations.MigrationPlanExecutor","ActionId":"1333212d-d6eb-4005-838d-d7f5dc3f35ab","ActionName":"Umbraco.Cms.Web.BackOffice.Install.InstallApiController.PostPerformInstall (Umbraco.Web.BackOffice)","RequestId":"800000b7-0008-fc00-b63f-84710c7967bb","RequestPath":"/install/api/PostPerformInstall","ProcessId":4764,"ProcessName":"iisexpress","ThreadId":24,"AppDomainId":1,"AppDomainAppId":"1317b4e1457b8b3d80d9fc74a5657c5870271dda","MachineName":"LAPTOP-P8HSFIHG","Log4NetLevel":"INFO ","HttpRequestId":"97ffdb2d-73c5-437c-903e-9aefeb9b9e3c","HttpRequestNumber":6,"HttpSessionId":"71e39254-bf5c-f238-cfd1-86dc8fe099e0"}
{"@t":"2021-08-29T20:23:58.4608245Z","@mt":"At {OrigState}","OrigState":"{622E5172-42E1-4662-AD80-9504AF5A4E53}","SourceContext":"Umbraco.Cms.Infrastructure.Migrations.MigrationPlanExecutor","ActionId":"1333212d-d6eb-4005-838d-d7f5dc3f35ab","ActionName":"Umbraco.Cms.Web.BackOffice.Install.InstallApiController.PostPerformInstall (Umbraco.Web.BackOffice)","RequestId":"800000b7-0008-fc00-b63f-84710c7967bb","RequestPath":"/install/api/PostPerformInstall","ProcessId":4764,"ProcessName":"iisexpress","ThreadId":24,"AppDomainId":1,"AppDomainAppId":"1317b4e1457b8b3d80d9fc74a5657c5870271dda","MachineName":"LAPTOP-P8HSFIHG","Log4NetLevel":"INFO ","HttpRequestId":"97ffdb2d-73c5-437c-903e-9aefeb9b9e3c","HttpRequestNumber":6,"HttpSessionId":"71e39254-bf5c-f238-cfd1-86dc8fe099e0"}
{"@t":"2021-08-29T20:23:58.4608664Z","@mt":"Execute {MigrationType}","MigrationType":"ExternalLoginTableIndexesFixup","SourceContext":"Umbraco.Cms.Infrastructure.Migrations.MigrationPlanExecutor","ActionId":"1333212d-d6eb-4005-838d-d7f5dc3f35ab","ActionName":"Umbraco.Cms.Web.BackOffice.Install.InstallApiController.PostPerformInstall (Umbraco.Web.BackOffice)","RequestId":"800000b7-0008-fc00-b63f-84710c7967bb","RequestPath":"/install/api/PostPerformInstall","ProcessId":4764,"ProcessName":"iisexpress","ThreadId":24,"AppDomainId":1,"AppDomainAppId":"1317b4e1457b8b3d80d9fc74a5657c5870271dda","MachineName":"LAPTOP-P8HSFIHG","Log4NetLevel":"INFO ","HttpRequestId":"97ffdb2d-73c5-437c-903e-9aefeb9b9e3c","HttpRequestNumber":6,"HttpSessionId":"71e39254-bf5c-f238-cfd1-86dc8fe099e0"}
{"@t":"2021-08-29T20:23:58.4651398Z","@mt":"SQL [{ContextIndex}]: {Sql}","ContextIndex":12,"Sql":"DROP INDEX [umbracoExternalLogin].[IX_umbracoExternalLogin_LoginProvider]","SourceContext":"Umbraco.Cms.Infrastructure.Migrations.MigrationContext","ActionId":"1333212d-d6eb-4005-838d-d7f5dc3f35ab","ActionName":"Umbraco.Cms.Web.BackOffice.Install.InstallApiController.PostPerformInstall (Umbraco.Web.BackOffice)","RequestId":"800000b7-0008-fc00-b63f-84710c7967bb","RequestPath":"/install/api/PostPerformInstall","ProcessId":4764,"ProcessName":"iisexpress","ThreadId":24,"AppDomainId":1,"AppDomainAppId":"1317b4e1457b8b3d80d9fc74a5657c5870271dda","MachineName":"LAPTOP-P8HSFIHG","Log4NetLevel":"INFO ","HttpRequestId":"97ffdb2d-73c5-437c-903e-9aefeb9b9e3c","HttpRequestNumber":6,"HttpSessionId":"71e39254-bf5c-f238-cfd1-86dc8fe099e0"}
{"@t":"2021-08-29T20:23:58.4675726Z","@mt":"SQL [{ContextIndex}]: {Sql}","ContextIndex":13,"Sql":"DROP INDEX [umbracoExternalLogin].[IX_umbracoExternalLogin_ProviderKey]","SourceContext":"Umbraco.Cms.Infrastructure.Migrations.MigrationContext","ActionId":"1333212d-d6eb-4005-838d-d7f5dc3f35ab","ActionName":"Umbraco.Cms.Web.BackOffice.Install.InstallApiController.PostPerformInstall (Umbraco.Web.BackOffice)","RequestId":"800000b7-0008-fc00-b63f-84710c7967bb","RequestPath":"/install/api/PostPerformInstall","ProcessId":4764,"ProcessName":"iisexpress","ThreadId":24,"AppDomainId":1,"AppDomainAppId":"1317b4e1457b8b3d80d9fc74a5657c5870271dda","MachineName":"LAPTOP-P8HSFIHG","Log4NetLevel":"INFO ","HttpRequestId":"97ffdb2d-73c5-437c-903e-9aefeb9b9e3c","HttpRequestNumber":6,"HttpSessionId":"71e39254-bf5c-f238-cfd1-86dc8fe099e0"}
{"@t":"2021-08-29T20:23:58.4688977Z","@mt":"SQL [{ContextIndex}]: {Sql}","ContextIndex":14,"Sql":"ALTER TABLE [umbracoExternalLogin] ALTER COLUMN [loginProvider] NVARCHAR(400) NOT NULL","SourceContext":"Umbraco.Cms.Infrastructure.Migrations.MigrationContext","ActionId":"1333212d-d6eb-4005-838d-d7f5dc3f35ab","ActionName":"Umbraco.Cms.Web.BackOffice.Install.InstallApiController.PostPerformInstall (Umbraco.Web.BackOffice)","RequestId":"800000b7-0008-fc00-b63f-84710c7967bb","RequestPath":"/install/api/PostPerformInstall","ProcessId":4764,"ProcessName":"iisexpress","ThreadId":24,"AppDomainId":1,"AppDomainAppId":"1317b4e1457b8b3d80d9fc74a5657c5870271dda","MachineName":"LAPTOP-P8HSFIHG","Log4NetLevel":"INFO ","HttpRequestId":"97ffdb2d-73c5-437c-903e-9aefeb9b9e3c","HttpRequestNumber":6,"HttpSessionId":"71e39254-bf5c-f238-cfd1-86dc8fe099e0"}
{"@t":"2021-08-29T20:23:58.4702321Z","@mt":"SQL [{ContextIndex}]: {Sql}","ContextIndex":15,"Sql":"CREATE NONCLUSTERED INDEX [IX_umbracoExternalLogin_LoginProvider] ON [umbracoExternalLogin] ([loginProvider],[userId])","SourceContext":"Umbraco.Cms.Infrastructure.Migrations.MigrationContext","ActionId":"1333212d-d6eb-4005-838d-d7f5dc3f35ab","ActionName":"Umbraco.Cms.Web.BackOffice.Install.InstallApiController.PostPerformInstall (Umbraco.Web.BackOffice)","RequestId":"800000b7-0008-fc00-b63f-84710c7967bb","RequestPath":"/install/api/PostPerformInstall","ProcessId":4764,"ProcessName":"iisexpress","ThreadId":24,"AppDomainId":1,"AppDomainAppId":"1317b4e1457b8b3d80d9fc74a5657c5870271dda","MachineName":"LAPTOP-P8HSFIHG","Log4NetLevel":"INFO ","HttpRequestId":"97ffdb2d-73c5-437c-903e-9aefeb9b9e3c","HttpRequestNumber":6,"HttpSessionId":"71e39254-bf5c-f238-cfd1-86dc8fe099e0"}
{"@t":"2021-08-29T20:23:58.4705932Z","@mt":"SQL [{ContextIndex}]: {Sql}","ContextIndex":16,"Sql":"CREATE NONCLUSTERED INDEX [IX_umbracoExternalLogin_ProviderKey] ON [umbracoExternalLogin] ([loginProvider],[providerKey])","SourceContext":"Umbraco.Cms.Infrastructure.Migrations.MigrationContext","ActionId":"1333212d-d6eb-4005-838d-d7f5dc3f35ab","ActionName":"Umbraco.Cms.Web.BackOffice.Install.InstallApiController.PostPerformInstall (Umbraco.Web.BackOffice)","RequestId":"800000b7-0008-fc00-b63f-84710c7967bb","RequestPath":"/install/api/PostPerformInstall","ProcessId":4764,"ProcessName":"iisexpress","ThreadId":24,"AppDomainId":1,"AppDomainAppId":"1317b4e1457b8b3d80d9fc74a5657c5870271dda","MachineName":"LAPTOP-P8HSFIHG","Log4NetLevel":"INFO ","HttpRequestId":"97ffdb2d-73c5-437c-903e-9aefeb9b9e3c","HttpRequestNumber":6,"HttpSessionId":"71e39254-bf5c-f238-cfd1-86dc8fe099e0"}
{"@t":"2021-08-29T20:23:58.4709914Z","@mt":"At {OrigState}","OrigState":"{10F7BB61-C550-426B-830B-7F954F689CDF}","SourceContext":"Umbraco.Cms.Infrastructure.Migrations.MigrationPlanExecutor","ActionId":"1333212d-d6eb-4005-838d-d7f5dc3f35ab","ActionName":"Umbraco.Cms.Web.BackOffice.Install.InstallApiController.PostPerformInstall (Umbraco.Web.BackOffice)","RequestId":"800000b7-0008-fc00-b63f-84710c7967bb","RequestPath":"/install/api/PostPerformInstall","ProcessId":4764,"ProcessName":"iisexpress","ThreadId":24,"AppDomainId":1,"AppDomainAppId":"1317b4e1457b8b3d80d9fc74a5657c5870271dda","MachineName":"LAPTOP-P8HSFIHG","Log4NetLevel":"INFO ","HttpRequestId":"97ffdb2d-73c5-437c-903e-9aefeb9b9e3c","HttpRequestNumber":6,"HttpSessionId":"71e39254-bf5c-f238-cfd1-86dc8fe099e0"}
{"@t":"2021-08-29T20:23:58.4710384Z","@mt":"Execute {MigrationType}","MigrationType":"DictionaryTablesIndexes","SourceContext":"Umbraco.Cms.Infrastructure.Migrations.MigrationPlanExecutor","ActionId":"1333212d-d6eb-4005-838d-d7f5dc3f35ab","ActionName":"Umbraco.Cms.Web.BackOffice.Install.InstallApiController.PostPerformInstall (Umbraco.Web.BackOffice)","RequestId":"800000b7-0008-fc00-b63f-84710c7967bb","RequestPath":"/install/api/PostPerformInstall","ProcessId":4764,"ProcessName":"iisexpress","ThreadId":24,"AppDomainId":1,"AppDomainAppId":"1317b4e1457b8b3d80d9fc74a5657c5870271dda","MachineName":"LAPTOP-P8HSFIHG","Log4NetLevel":"INFO ","HttpRequestId":"97ffdb2d-73c5-437c-903e-9aefeb9b9e3c","HttpRequestNumber":6,"HttpSessionId":"71e39254-bf5c-f238-cfd1-86dc8fe099e0"}
{"@t":"2021-08-29T20:23:58.4778769Z","@mt":"SQL [{ContextIndex}]: {Sql}","ContextIndex":17,"Sql":"DROP INDEX [cmsDictionary].[IX_cmsDictionary_key]","SourceContext":"Umbraco.Cms.Infrastructure.Migrations.MigrationContext","ActionId":"1333212d-d6eb-4005-838d-d7f5dc3f35ab","ActionName":"Umbraco.Cms.Web.BackOffice.Install.InstallApiController.PostPerformInstall (Umbraco.Web.BackOffice)","RequestId":"800000b7-0008-fc00-b63f-84710c7967bb","RequestPath":"/install/api/PostPerformInstall","ProcessId":4764,"ProcessName":"iisexpress","ThreadId":24,"AppDomainId":1,"AppDomainAppId":"1317b4e1457b8b3d80d9fc74a5657c5870271dda","MachineName":"LAPTOP-P8HSFIHG","Log4NetLevel":"INFO ","HttpRequestId":"97ffdb2d-73c5-437c-903e-9aefeb9b9e3c","HttpRequestNumber":6,"HttpSessionId":"71e39254-bf5c-f238-cfd1-86dc8fe099e0"}
{"@t":"2021-08-29T20:23:58.4817825Z","@mt":"SQL [{ContextIndex}]: {Sql}","ContextIndex":18,"Sql":"CREATE UNIQUE NONCLUSTERED INDEX [IX_cmsDictionary_key] ON [cmsDictionary] ([key])","SourceContext":"Umbraco.Cms.Infrastructure.Migrations.MigrationContext","ActionId":"1333212d-d6eb-4005-838d-d7f5dc3f35ab","ActionName":"Umbraco.Cms.Web.BackOffice.Install.InstallApiController.PostPerformInstall (Umbraco.Web.BackOffice)","RequestId":"800000b7-0008-fc00-b63f-84710c7967bb","RequestPath":"/install/api/PostPerformInstall","ProcessId":4764,"ProcessName":"iisexpress","ThreadId":24,"AppDomainId":1,"AppDomainAppId":"1317b4e1457b8b3d80d9fc74a5657c5870271dda","MachineName":"LAPTOP-P8HSFIHG","Log4NetLevel":"INFO ","HttpRequestId":"97ffdb2d-73c5-437c-903e-9aefeb9b9e3c","HttpRequestNumber":6,"HttpSessionId":"71e39254-bf5c-f238-cfd1-86dc8fe099e0"}
{"@t":"2021-08-29T20:23:58.4827004Z","@mt":"SQL [{ContextIndex}]: {Sql}","ContextIndex":19,"Sql":"CREATE UNIQUE NONCLUSTERED INDEX [IX_cmsLanguageText_languageId] ON [cmsLanguageText] ([languageId],[UniqueId])","SourceContext":"Umbraco.Cms.Infrastructure.Migrations.MigrationContext","ActionId":"1333212d-d6eb-4005-838d-d7f5dc3f35ab","ActionName":"Umbraco.Cms.Web.BackOffice.Install.InstallApiController.PostPerformInstall (Umbraco.Web.BackOffice)","RequestId":"800000b7-0008-fc00-b63f-84710c7967bb","RequestPath":"/install/api/PostPerformInstall","ProcessId":4764,"ProcessName":"iisexpress","ThreadId":24,"AppDomainId":1,"AppDomainAppId":"1317b4e1457b8b3d80d9fc74a5657c5870271dda","MachineName":"LAPTOP-P8HSFIHG","Log4NetLevel":"INFO ","HttpRequestId":"97ffdb2d-73c5-437c-903e-9aefeb9b9e3c","HttpRequestNumber":6,"HttpSessionId":"71e39254-bf5c-f238-cfd1-86dc8fe099e0"}
{"@t":"2021-08-29T20:23:58.4830021Z","@mt":"At {OrigState}","OrigState":"{12DCDE7F-9AB7-4617-804F-AB66BF360980}","SourceContext":"Umbraco.Cms.Infrastructure.Migrations.MigrationPlanExecutor","ActionId":"1333212d-d6eb-4005-838d-d7f5dc3f35ab","ActionName":"Umbraco.Cms.Web.BackOffice.Install.InstallApiController.PostPerformInstall (Umbraco.Web.BackOffice)","RequestId":"800000b7-0008-fc00-b63f-84710c7967bb","RequestPath":"/install/api/PostPerformInstall","ProcessId":4764,"ProcessName":"iisexpress","ThreadId":24,"AppDomainId":1,"AppDomainAppId":"1317b4e1457b8b3d80d9fc74a5657c5870271dda","MachineName":"LAPTOP-P8HSFIHG","Log4NetLevel":"INFO ","HttpRequestId":"97ffdb2d-73c5-437c-903e-9aefeb9b9e3c","HttpRequestNumber":6,"HttpSessionId":"71e39254-bf5c-f238-cfd1-86dc8fe099e0"}
{"@t":"2021-08-29T20:23:58.4833165Z","@mt":"PostMigration: Umbraco.Cms.Infrastructure.Migrations.PostMigrations.ClearCsrfCookies.","SourceContext":"Umbraco.Cms.Infrastructure.Migrations.MigrationPlanExecutor","ActionId":"1333212d-d6eb-4005-838d-d7f5dc3f35ab","ActionName":"Umbraco.Cms.Web.BackOffice.Install.InstallApiController.PostPerformInstall (Umbraco.Web.BackOffice)","RequestId":"800000b7-0008-fc00-b63f-84710c7967bb","RequestPath":"/install/api/PostPerformInstall","ProcessId":4764,"ProcessName":"iisexpress","ThreadId":24,"AppDomainId":1,"AppDomainAppId":"1317b4e1457b8b3d80d9fc74a5657c5870271dda","MachineName":"LAPTOP-P8HSFIHG","Log4NetLevel":"INFO ","HttpRequestId":"97ffdb2d-73c5-437c-903e-9aefeb9b9e3c","HttpRequestNumber":6,"HttpSessionId":"71e39254-bf5c-f238-cfd1-86dc8fe099e0"}
{"@t":"2021-08-29T20:23:58.4840489Z","@mt":"PostMigration: Umbraco.Cms.Infrastructure.Migrations.PostMigrations.DeleteLogViewerQueryFile.","SourceContext":"Umbraco.Cms.Infrastructure.Migrations.MigrationPlanExecutor","ActionId":"1333212d-d6eb-4005-838d-d7f5dc3f35ab","ActionName":"Umbraco.Cms.Web.BackOffice.Install.InstallApiController.PostPerformInstall (Umbraco.Web.BackOffice)","RequestId":"800000b7-0008-fc00-b63f-84710c7967bb","RequestPath":"/install/api/PostPerformInstall","ProcessId":4764,"ProcessName":"iisexpress","ThreadId":24,"AppDomainId":1,"AppDomainAppId":"1317b4e1457b8b3d80d9fc74a5657c5870271dda","MachineName":"LAPTOP-P8HSFIHG","Log4NetLevel":"INFO ","HttpRequestId":"97ffdb2d-73c5-437c-903e-9aefeb9b9e3c","HttpRequestNumber":6,"HttpSessionId":"71e39254-bf5c-f238-cfd1-86dc8fe099e0"}
{"@t":"2021-08-29T20:23:58.4844623Z","@mt":"Done (pending scope completion).","SourceContext":"Umbraco.Cms.Infrastructure.Migrations.MigrationPlanExecutor","ActionId":"1333212d-d6eb-4005-838d-d7f5dc3f35ab","ActionName":"Umbraco.Cms.Web.BackOffice.Install.InstallApiController.PostPerformInstall (Umbraco.Web.BackOffice)","RequestId":"800000b7-0008-fc00-b63f-84710c7967bb","RequestPath":"/install/api/PostPerformInstall","ProcessId":4764,"ProcessName":"iisexpress","ThreadId":24,"AppDomainId":1,"AppDomainAppId":"1317b4e1457b8b3d80d9fc74a5657c5870271dda","MachineName":"LAPTOP-P8HSFIHG","Log4NetLevel":"INFO ","HttpRequestId":"97ffdb2d-73c5-437c-903e-9aefeb9b9e3c","HttpRequestNumber":6,"HttpSessionId":"71e39254-bf5c-f238-cfd1-86dc8fe099e0"}
{"@t":"2021-08-29T20:23:58.5047207Z","@mt":"Database configuration status: {DbConfigStatus}","DbConfigStatus":"<p>Upgrade completed!</p>","SourceContext":"Umbraco.Cms.Infrastructure.Migrations.Install.DatabaseBuilder","ActionId":"1333212d-d6eb-4005-838d-d7f5dc3f35ab","ActionName":"Umbraco.Cms.Web.BackOffice.Install.InstallApiController.PostPerformInstall (Umbraco.Web.BackOffice)","RequestId":"800000b7-0008-fc00-b63f-84710c7967bb","RequestPath":"/install/api/PostPerformInstall","ProcessId":4764,"ProcessName":"iisexpress","ThreadId":24,"AppDomainId":1,"AppDomainAppId":"1317b4e1457b8b3d80d9fc74a5657c5870271dda","MachineName":"LAPTOP-P8HSFIHG","Log4NetLevel":"INFO ","HttpRequestId":"97ffdb2d-73c5-437c-903e-9aefeb9b9e3c","HttpRequestNumber":6,"HttpSessionId":"71e39254-bf5c-f238-cfd1-86dc8fe099e0"}
{"@t":"2021-08-29T20:23:58.5047829Z","@mt":"{EndMessage} ({Duration}ms) [Timing {TimingId}]","EndMessage":"Step completed","Duration":183,"TimingId":"f6f1ee5","SourceContext":"Umbraco.Cms.Core.Logging.ProfilingLogger","ActionId":"1333212d-d6eb-4005-838d-d7f5dc3f35ab","ActionName":"Umbraco.Cms.Web.BackOffice.Install.InstallApiController.PostPerformInstall (Umbraco.Web.BackOffice)","RequestId":"800000b7-0008-fc00-b63f-84710c7967bb","RequestPath":"/install/api/PostPerformInstall","ProcessId":4764,"ProcessName":"iisexpress","ThreadId":24,"AppDomainId":1,"AppDomainAppId":"1317b4e1457b8b3d80d9fc74a5657c5870271dda","MachineName":"LAPTOP-P8HSFIHG","Log4NetLevel":"INFO ","HttpRequestId":"97ffdb2d-73c5-437c-903e-9aefeb9b9e3c","HttpRequestNumber":6,"HttpSessionId":"71e39254-bf5c-f238-cfd1-86dc8fe099e0"}
{"@t":"2021-08-29T20:23:58.5313541Z","@mt":"{StartMessage} [Timing {TimingId}]","StartMessage":"Executing installation step: 'UmbracoVersion'.","TimingId":"dfedc21","SourceContext":"Umbraco.Cms.Core.Logging.ProfilingLogger","ActionId":"1333212d-d6eb-4005-838d-d7f5dc3f35ab","ActionName":"Umbraco.Cms.Web.BackOffice.Install.InstallApiController.PostPerformInstall (Umbraco.Web.BackOffice)","RequestId":"8000009c-0000-fc00-b63f-84710c7967bb","RequestPath":"/install/api/PostPerformInstall","ProcessId":4764,"ProcessName":"iisexpress","ThreadId":4,"AppDomainId":1,"AppDomainAppId":"1317b4e1457b8b3d80d9fc74a5657c5870271dda","MachineName":"LAPTOP-P8HSFIHG","Log4NetLevel":"INFO ","HttpRequestId":"51edf6fc-1ec4-4727-a3c2-9955bddb690d","HttpRequestNumber":7,"HttpSessionId":"957977d3-02ae-b10a-eb52-b6810a73a23f"}
{"@t":"2021-08-29T20:24:12.2204923Z","@mt":"{EndMessage} ({Duration}ms) [Timing {TimingId}]","EndMessage":"Step completed","Duration":13689,"TimingId":"dfedc21","SourceContext":"Umbraco.Cms.Core.Logging.ProfilingLogger","ActionId":"1333212d-d6eb-4005-838d-d7f5dc3f35ab","ActionName":"Umbraco.Cms.Web.BackOffice.Install.InstallApiController.PostPerformInstall (Umbraco.Web.BackOffice)","RequestId":"8000009c-0000-fc00-b63f-84710c7967bb","RequestPath":"/install/api/PostPerformInstall","ProcessId":4764,"ProcessName":"iisexpress","ThreadId":36,"AppDomainId":1,"AppDomainAppId":"1317b4e1457b8b3d80d9fc74a5657c5870271dda","MachineName":"LAPTOP-P8HSFIHG","Log4NetLevel":"INFO ","HttpRequestId":"51edf6fc-1ec4-4727-a3c2-9955bddb690d","HttpRequestNumber":7,"HttpSessionId":"957977d3-02ae-b10a-eb52-b6810a73a23f"}
{"@t":"2021-08-29T20:24:12.4897454Z","@mt":"Database NuCache was serialized using {CurrentSerializer}. Currently configured NuCache serializer {Serializer}. Rebuilding Nucache","@l":"Warning","CurrentSerializer":"0","Serializer":"MessagePack","SourceContext":"Umbraco.Cms.Infrastructure.PublishedCache.Persistence.NuCacheContentService","ActionId":"b93e09ae-32c3-4c44-aae0-e459a671cec6","ActionName":"Umbraco.Cms.Web.BackOffice.Install.InstallApiController.CompleteInstall (Umbraco.Web.BackOffice)","RequestId":"800000bb-0008-fc00-b63f-84710c7967bb","RequestPath":"/install/api/CompleteInstall","ProcessId":4764,"ProcessName":"iisexpress","ThreadId":22,"AppDomainId":1,"AppDomainAppId":"1317b4e1457b8b3d80d9fc74a5657c5870271dda","MachineName":"LAPTOP-P8HSFIHG","Log4NetLevel":"WARN ","HttpRequestId":"3a52ffe9-1b63-4c83-bb30-060a27a8ec27","HttpRequestNumber":8,"HttpSessionId":"8b8c9967-3ab7-3ec4-83d2-a8a73ab9daee"}
{"@t":"2021-08-29T20:24:12.4899406Z","@mt":"{StartMessage} [Timing {TimingId}]","StartMessage":"Rebuilding NuCache database with MessagePack serializer","TimingId":"5e634cc","SourceContext":"Umbraco.Cms.Core.Logging.ProfilingLogger","ActionId":"b93e09ae-32c3-4c44-aae0-e459a671cec6","ActionName":"Umbraco.Cms.Web.BackOffice.Install.InstallApiController.CompleteInstall (Umbraco.Web.BackOffice)","RequestId":"800000bb-0008-fc00-b63f-84710c7967bb","RequestPath":"/install/api/CompleteInstall","ProcessId":4764,"ProcessName":"iisexpress","ThreadId":22,"AppDomainId":1,"AppDomainAppId":"1317b4e1457b8b3d80d9fc74a5657c5870271dda","MachineName":"LAPTOP-P8HSFIHG","Log4NetLevel":"INFO ","HttpRequestId":"3a52ffe9-1b63-4c83-bb30-060a27a8ec27","HttpRequestNumber":8,"HttpSessionId":"8b8c9967-3ab7-3ec4-83d2-a8a73ab9daee"}
{"@t":"2021-08-29T20:24:12.9500086Z","@mt":"{EndMessage} ({Duration}ms) [Timing {TimingId}]","EndMessage":"Completed.","Duration":460,"TimingId":"5e634cc","SourceContext":"Umbraco.Cms.Core.Logging.ProfilingLogger","ActionId":"b93e09ae-32c3-4c44-aae0-e459a671cec6","ActionName":"Umbraco.Cms.Web.BackOffice.Install.InstallApiController.CompleteInstall (Umbraco.Web.BackOffice)","RequestId":"800000bb-0008-fc00-b63f-84710c7967bb","RequestPath":"/install/api/CompleteInstall","ProcessId":4764,"ProcessName":"iisexpress","ThreadId":22,"AppDomainId":1,"AppDomainAppId":"1317b4e1457b8b3d80d9fc74a5657c5870271dda","MachineName":"LAPTOP-P8HSFIHG","Log4NetLevel":"INFO ","HttpRequestId":"3a52ffe9-1b63-4c83-bb30-060a27a8ec27","HttpRequestNumber":8,"HttpSessionId":"8b8c9967-3ab7-3ec4-83d2-a8a73ab9daee"}
{"@t":"2021-08-29T20:33:21.3716475Z","@mt":"Acquiring.","SourceContext":"Umbraco.Cms.Core.Runtime.MainDom","ProcessId":21236,"ProcessName":"iisexpress","ThreadId":1,"AppDomainId":1,"AppDomainAppId":"1317b4e1457b8b3d80d9fc74a5657c5870271dda","MachineName":"LAPTOP-P8HSFIHG","Log4NetLevel":"INFO "}
{"@t":"2021-08-29T20:33:21.3915708Z","@mt":"Acquired.","SourceContext":"Umbraco.Cms.Core.Runtime.MainDom","ProcessId":21236,"ProcessName":"iisexpress","ThreadId":1,"AppDomainId":1,"AppDomainAppId":"1317b4e1457b8b3d80d9fc74a5657c5870271dda","MachineName":"LAPTOP-P8HSFIHG","Log4NetLevel":"INFO "}
{"@t":"2021-08-29T20:33:22.8298636Z","@mt":"Application started. Press Ctrl+C to shut down.","SourceContext":"Microsoft.Hosting.Lifetime","ProcessId":21236,"ProcessName":"iisexpress","ThreadId":1,"AppDomainId":1,"AppDomainAppId":"1317b4e1457b8b3d80d9fc74a5657c5870271dda","MachineName":"LAPTOP-P8HSFIHG","Log4NetLevel":"INFO "}
{"@t":"2021-08-29T20:33:22.8302283Z","@mt":"Hosting environment: {envName}","envName":"Development","SourceContext":"Microsoft.Hosting.Lifetime","ProcessId":21236,"ProcessName":"iisexpress","ThreadId":1,"AppDomainId":1,"AppDomainAppId":"1317b4e1457b8b3d80d9fc74a5657c5870271dda","MachineName":"LAPTOP-P8HSFIHG","Log4NetLevel":"INFO "}
{"@t":"2021-08-29T20:33:22.8304607Z","@mt":"Content root path: {contentRoot}","contentRoot":"C:\\Projects\\UmbracoHowTo\\ourumbraco","SourceContext":"Microsoft.Hosting.Lifetime","ProcessId":21236,"ProcessName":"iisexpress","ThreadId":1,"AppDomainId":1,"AppDomainAppId":"1317b4e1457b8b3d80d9fc74a5657c5870271dda","MachineName":"LAPTOP-P8HSFIHG","Log4NetLevel":"INFO "}
{"@t":"2021-08-29T20:33:23.0577254Z","@mt":"Registered with MainDom, localContentDbExists? {LocalContentDbExists}, localMediaDbExists? {LocalMediaDbExists}","LocalContentDbExists":true,"LocalMediaDbExists":true,"SourceContext":"Umbraco.Cms.Infrastructure.PublishedCache.PublishedSnapshotService","RequestId":"80000016-0004-fd00-b63f-84710c7967bb","RequestPath":"/","ProcessId":21236,"ProcessName":"iisexpress","ThreadId":6,"AppDomainId":1,"AppDomainAppId":"1317b4e1457b8b3d80d9fc74a5657c5870271dda","MachineName":"LAPTOP-P8HSFIHG","Log4NetLevel":"INFO ","HttpRequestId":"43d8a345-efe2-49ba-9b92-11c6269b54a5","HttpRequestNumber":1,"HttpSessionId":"0"}
{"@t":"2021-08-29T20:33:23.0591255Z","@mt":"Creating the content store, localContentDbExists? {LocalContentDbExists}","LocalContentDbExists":true,"SourceContext":"Umbraco.Cms.Infrastructure.PublishedCache.PublishedSnapshotService","RequestId":"80000016-0004-fd00-b63f-84710c7967bb","RequestPath":"/","ProcessId":21236,"ProcessName":"iisexpress","ThreadId":6,"AppDomainId":1,"AppDomainAppId":"1317b4e1457b8b3d80d9fc74a5657c5870271dda","MachineName":"LAPTOP-P8HSFIHG","Log4NetLevel":"INFO ","HttpRequestId":"43d8a345-efe2-49ba-9b92-11c6269b54a5","HttpRequestNumber":1,"HttpSessionId":"0"}
{"@t":"2021-08-29T20:33:23.0611264Z","@mt":"Creating the media store, localMediaDbExists? {LocalMediaDbExists}","LocalMediaDbExists":true,"SourceContext":"Umbraco.Cms.Infrastructure.PublishedCache.PublishedSnapshotService","RequestId":"80000016-0004-fd00-b63f-84710c7967bb","RequestPath":"/","ProcessId":21236,"ProcessName":"iisexpress","ThreadId":6,"AppDomainId":1,"AppDomainAppId":"1317b4e1457b8b3d80d9fc74a5657c5870271dda","MachineName":"LAPTOP-P8HSFIHG","Log4NetLevel":"INFO ","HttpRequestId":"43d8a345-efe2-49ba-9b92-11c6269b54a5","HttpRequestNumber":1,"HttpSessionId":"0"}
{"@t":"2021-08-29T20:33:23.4047931Z","@mt":"{StartMessage} [Timing {TimingId}]","StartMessage":"Loading content from local cache file","TimingId":"768e28d","SourceContext":"Umbraco.Cms.Core.Logging.ProfilingLogger","RequestId":"80000016-0004-fd00-b63f-84710c7967bb","RequestPath":"/","ProcessId":21236,"ProcessName":"iisexpress","ThreadId":6,"AppDomainId":1,"AppDomainAppId":"1317b4e1457b8b3d80d9fc74a5657c5870271dda","MachineName":"LAPTOP-P8HSFIHG","Log4NetLevel":"INFO ","HttpRequestId":"43d8a345-efe2-49ba-9b92-11c6269b54a5","HttpRequestNumber":1,"HttpSessionId":"0"}
{"@t":"2021-08-29T20:33:23.4227848Z","@mt":"{EndMessage} ({Duration}ms) [Timing {TimingId}]","EndMessage":"Completed.","Duration":18,"TimingId":"768e28d","SourceContext":"Umbraco.Cms.Core.Logging.ProfilingLogger","RequestId":"80000016-0004-fd00-b63f-84710c7967bb","RequestPath":"/","ProcessId":21236,"ProcessName":"iisexpress","ThreadId":6,"AppDomainId":1,"AppDomainAppId":"1317b4e1457b8b3d80d9fc74a5657c5870271dda","MachineName":"LAPTOP-P8HSFIHG","Log4NetLevel":"INFO ","HttpRequestId":"43d8a345-efe2-49ba-9b92-11c6269b54a5","HttpRequestNumber":1,"HttpSessionId":"0"}
{"@t":"2021-08-29T20:33:23.4479536Z","@mt":"{StartMessage} [Timing {TimingId}]","StartMessage":"Loading media from local cache file","TimingId":"73e5ef9","SourceContext":"Umbraco.Cms.Core.Logging.ProfilingLogger","RequestId":"80000016-0004-fd00-b63f-84710c7967bb","RequestPath":"/","ProcessId":21236,"ProcessName":"iisexpress","ThreadId":6,"AppDomainId":1,"AppDomainAppId":"1317b4e1457b8b3d80d9fc74a5657c5870271dda","MachineName":"LAPTOP-P8HSFIHG","Log4NetLevel":"INFO ","HttpRequestId":"43d8a345-efe2-49ba-9b92-11c6269b54a5","HttpRequestNumber":1,"HttpSessionId":"0"}
{"@t":"2021-08-29T20:33:23.4481523Z","@mt":"Tried to load {entityType} from the local cache file but it was empty.","entityType":"media","SourceContext":"Umbraco.Cms.Infrastructure.PublishedCache.PublishedSnapshotService","RequestId":"80000016-0004-fd00-b63f-84710c7967bb","RequestPath":"/","ProcessId":21236,"ProcessName":"iisexpress","ThreadId":6,"AppDomainId":1,"AppDomainAppId":"1317b4e1457b8b3d80d9fc74a5657c5870271dda","MachineName":"LAPTOP-P8HSFIHG","Log4NetLevel":"INFO ","HttpRequestId":"43d8a345-efe2-49ba-9b92-11c6269b54a5","HttpRequestNumber":1,"HttpSessionId":"0"}
{"@t":"2021-08-29T20:33:23.4481768Z","@mt":"{EndMessage} ({Duration}ms) [Timing {TimingId}]","EndMessage":"Completed.","Duration":0,"TimingId":"73e5ef9","SourceContext":"Umbraco.Cms.Core.Logging.ProfilingLogger","RequestId":"80000016-0004-fd00-b63f-84710c7967bb","RequestPath":"/","ProcessId":21236,"ProcessName":"iisexpress","ThreadId":6,"AppDomainId":1,"AppDomainAppId":"1317b4e1457b8b3d80d9fc74a5657c5870271dda","MachineName":"LAPTOP-P8HSFIHG","Log4NetLevel":"INFO ","HttpRequestId":"43d8a345-efe2-49ba-9b92-11c6269b54a5","HttpRequestNumber":1,"HttpSessionId":"0"}
{"@t":"2021-08-29T20:33:23.4508066Z","@mt":"Loading media from local db raised warnings, will reload from database.","@l":"Warning","SourceContext":"Umbraco.Cms.Infrastructure.PublishedCache.PublishedSnapshotService","RequestId":"80000016-0004-fd00-b63f-84710c7967bb","RequestPath":"/","ProcessId":21236,"ProcessName":"iisexpress","ThreadId":6,"AppDomainId":1,"AppDomainAppId":"1317b4e1457b8b3d80d9fc74a5657c5870271dda","MachineName":"LAPTOP-P8HSFIHG","Log4NetLevel":"WARN ","HttpRequestId":"43d8a345-efe2-49ba-9b92-11c6269b54a5","HttpRequestNumber":1,"HttpSessionId":"0"}
{"@t":"2021-08-29T20:33:23.4714967Z","@mt":"{StartMessage} [Timing {TimingId}]","StartMessage":"Loading media from database","TimingId":"a9156fb","SourceContext":"Umbraco.Cms.Core.Logging.ProfilingLogger","RequestId":"80000016-0004-fd00-b63f-84710c7967bb","RequestPath":"/","ProcessId":21236,"ProcessName":"iisexpress","ThreadId":6,"AppDomainId":1,"AppDomainAppId":"1317b4e1457b8b3d80d9fc74a5657c5870271dda","MachineName":"LAPTOP-P8HSFIHG","Log4NetLevel":"INFO ","HttpRequestId":"43d8a345-efe2-49ba-9b92-11c6269b54a5","HttpRequestNumber":1,"HttpSessionId":"0"}
{"@t":"2021-08-29T20:33:23.5378567Z","@mt":"{EndMessage} ({Duration}ms) [Timing {TimingId}]","EndMessage":"Completed.","Duration":66,"TimingId":"a9156fb","SourceContext":"Umbraco.Cms.Core.Logging.ProfilingLogger","RequestId":"80000016-0004-fd00-b63f-84710c7967bb","RequestPath":"/","ProcessId":21236,"ProcessName":"iisexpress","ThreadId":6,"AppDomainId":1,"AppDomainAppId":"1317b4e1457b8b3d80d9fc74a5657c5870271dda","MachineName":"LAPTOP-P8HSFIHG","Log4NetLevel":"INFO ","HttpRequestId":"43d8a345-efe2-49ba-9b92-11c6269b54a5","HttpRequestNumber":1,"HttpSessionId":"0"}
{"@t":"2021-08-29T20:33:40.5885054Z","@mt":"User {UserName} from IP address {RemoteIpAddress} has logged out","UserName":null,"RemoteIpAddress":"::1","SourceContext":"Umbraco.Cms.Web.BackOffice.Controllers.AuthenticationController","ActionId":"1975bab2-19b9-485e-9de2-6abbe8c365c5","ActionName":"Umbraco.Cms.Web.BackOffice.Controllers.AuthenticationController.PostLogout (Umbraco.Web.BackOffice)","RequestId":"8000002f-0001-fc00-b63f-84710c7967bb","RequestPath":"/umbraco/backoffice/umbracoapi/authentication/PostLogout","ProcessId":21236,"ProcessName":"iisexpress","ThreadId":23,"AppDomainId":1,"AppDomainAppId":"1317b4e1457b8b3d80d9fc74a5657c5870271dda","MachineName":"LAPTOP-P8HSFIHG","Log4NetLevel":"INFO ","HttpRequestId":"f285fd2f-2c1e-4ce1-aab7-ed08321d9dce","HttpRequestNumber":2,"HttpSessionId":"d1905720-0425-a9c8-855c-21ab7eb7c0d2"}
{"@t":"2021-08-29T20:33:54.9988247Z","@mt":"An unhandled exception has occurred while executing the request.","@l":"Error","@x":"System.Net.Internals.SocketExceptionFactory+ExtendedSocketException (10061): No connection could be made because the target machine actively refused it. 127.0.0.1:25\r\n   at System.Net.Sockets.Socket.EndConnect(IAsyncResult asyncResult)\r\n   at MailKit.Net.SocketUtils.ConnectAsync(String host, Int32 port, IPEndPoint localEndPoint, Boolean doAsync, CancellationToken cancellationToken)\r\n   at MailKit.Net.SocketUtils.ConnectAsync(String host, Int32 port, IPEndPoint localEndPoint, Int32 timeout, Boolean doAsync, CancellationToken cancellationToken)\r\n   at MailKit.MailService.ConnectSocket(String host, Int32 port, Boolean doAsync, CancellationToken cancellationToken)\r\n   at MailKit.Net.Smtp.SmtpClient.ConnectAsync(String host, Int32 port, SecureSocketOptions options, Boolean doAsync, CancellationToken cancellationToken)\r\n   at Umbraco.Cms.Infrastructure.EmailSender.SendAsyncInternal(EmailMessage message, Boolean enableNotification)\r\n   at Umbraco.Cms.Infrastructure.EmailSender.SendAsync(EmailMessage message)\r\n   at Umbraco.Cms.Web.BackOffice.Controllers.AuthenticationController.PostRequestPasswordReset(RequestPasswordResetModel model)\r\n   at Microsoft.AspNetCore.Mvc.Infrastructure.ActionMethodExecutor.TaskOfIActionResultExecutor.Execute(IActionResultTypeMapper mapper, ObjectMethodExecutor executor, Object controller, Object[] arguments)\r\n   at Microsoft.AspNetCore.Mvc.Infrastructure.ControllerActionInvoker.<InvokeActionMethodAsync>g__Logged|12_1(ControllerActionInvoker invoker)\r\n   at Microsoft.AspNetCore.Mvc.Infrastructure.ControllerActionInvoker.<InvokeNextActionFilterAsync>g__Awaited|10_0(ControllerActionInvoker invoker, Task lastTask, State next, Scope scope, Object state, Boolean isCompleted)\r\n   at Microsoft.AspNetCore.Mvc.Infrastructure.ControllerActionInvoker.Rethrow(ActionExecutedContextSealed context)\r\n   at Microsoft.AspNetCore.Mvc.Infrastructure.ControllerActionInvoker.Next(State& next, Scope& scope, Object& state, Boolean& isCompleted)\r\n   at Microsoft.AspNetCore.Mvc.Infrastructure.ControllerActionInvoker.<InvokeInnerFilterAsync>g__Awaited|13_0(ControllerActionInvoker invoker, Task lastTask, State next, Scope scope, Object state, Boolean isCompleted)\r\n   at Microsoft.AspNetCore.Mvc.Infrastructure.ResourceInvoker.<InvokeNextResourceFilter>g__Awaited|24_0(ResourceInvoker invoker, Task lastTask, State next, Scope scope, Object state, Boolean isCompleted)\r\n   at Microsoft.AspNetCore.Mvc.Infrastructure.ResourceInvoker.Rethrow(ResourceExecutedContextSealed context)\r\n   at Microsoft.AspNetCore.Mvc.Infrastructure.ResourceInvoker.Next(State& next, Scope& scope, Object& state, Boolean& isCompleted)\r\n   at Microsoft.AspNetCore.Mvc.Infrastructure.ResourceInvoker.<InvokeFilterPipelineAsync>g__Awaited|19_0(ResourceInvoker invoker, Task lastTask, State next, Scope scope, Object state, Boolean isCompleted)\r\n   at Microsoft.AspNetCore.Mvc.Infrastructure.ResourceInvoker.<InvokeAsync>g__Logged|17_1(ResourceInvoker invoker)\r\n   at Microsoft.AspNetCore.Routing.EndpointMiddleware.<Invoke>g__AwaitRequestTask|6_0(Endpoint endpoint, Task requestTask, ILogger logger)\r\n   at Umbraco.Cms.Web.Common.Middleware.BasicAuthenticationMiddleware.InvokeAsync(HttpContext context, RequestDelegate next)\r\n   at Microsoft.AspNetCore.Builder.UseMiddlewareExtensions.<>c__DisplayClass6_1.<<UseMiddlewareInterface>b__1>d.MoveNext()\r\n--- End of stack trace from previous location ---\r\n   at Umbraco.Cms.Web.Website.Middleware.PublicAccessMiddleware.InvokeAsync(HttpContext context, RequestDelegate next)\r\n   at Microsoft.AspNetCore.Builder.UseMiddlewareExtensions.<>c__DisplayClass6_1.<<UseMiddlewareInterface>b__1>d.MoveNext()\r\n--- End of stack trace from previous location ---\r\n   at Umbraco.Cms.Web.BackOffice.Middleware.BackOfficeExternalLoginProviderErrorMiddleware.InvokeAsync(HttpContext context, RequestDelegate next)\r\n   at Microsoft.AspNetCore.Builder.UseMiddlewareExtensions.<>c__DisplayClass6_1.<<UseMiddlewareInterface>b__1>d.MoveNext()\r\n--- End of stack trace from previous location ---\r\n   at Microsoft.AspNetCore.Builder.Extensions.MapMiddleware.Invoke(HttpContext context)\r\n   at Microsoft.AspNetCore.Session.SessionMiddleware.Invoke(HttpContext context)\r\n   at Microsoft.AspNetCore.Session.SessionMiddleware.Invoke(HttpContext context)\r\n   at Microsoft.AspNetCore.Localization.RequestLocalizationMiddleware.Invoke(HttpContext context)\r\n   at Microsoft.AspNetCore.Authorization.Policy.AuthorizationMiddlewareResultHandler.HandleAsync(RequestDelegate next, HttpContext context, AuthorizationPolicy policy, PolicyAuthorizationResult authorizeResult)\r\n   at Microsoft.AspNetCore.Authorization.AuthorizationMiddleware.Invoke(HttpContext context)\r\n   at Microsoft.AspNetCore.Authentication.AuthenticationMiddleware.Invoke(HttpContext context)\r\n   at SixLabors.ImageSharp.Web.Middleware.ImageSharpMiddleware.Invoke(HttpContext context)\r\n   at Microsoft.AspNetCore.Diagnostics.StatusCodePagesMiddleware.Invoke(HttpContext context)\r\n   at StackExchange.Profiling.MiniProfilerMiddleware.Invoke(HttpContext context) in C:\\projects\\dotnet\\src\\MiniProfiler.AspNetCore\\MiniProfilerMiddleware.cs:line 121\r\n   at Umbraco.Cms.Web.Common.Middleware.UmbracoRequestMiddleware.InvokeAsync(HttpContext context, RequestDelegate next)\r\n   at Umbraco.Cms.Web.Common.Middleware.UmbracoRequestMiddleware.InvokeAsync(HttpContext context, RequestDelegate next)\r\n   at Microsoft.AspNetCore.Builder.UseMiddlewareExtensions.<>c__DisplayClass6_1.<<UseMiddlewareInterface>b__1>d.MoveNext()\r\n--- End of stack trace from previous location ---\r\n   at Umbraco.Cms.Web.Common.Middleware.PreviewAuthenticationMiddleware.InvokeAsync(HttpContext context, RequestDelegate next)\r\n   at Microsoft.AspNetCore.Builder.UseMiddlewareExtensions.<>c__DisplayClass6_1.<<UseMiddlewareInterface>b__1>d.MoveNext()\r\n--- End of stack trace from previous location ---\r\n   at Umbraco.Cms.Web.Common.Middleware.UmbracoRequestLoggingMiddleware.InvokeAsync(HttpContext context, RequestDelegate next)\r\n   at Microsoft.AspNetCore.Builder.UseMiddlewareExtensions.<>c__DisplayClass6_1.<<UseMiddlewareInterface>b__1>d.MoveNext()\r\n--- End of stack trace from previous location ---\r\n   at Microsoft.AspNetCore.Diagnostics.DeveloperExceptionPageMiddleware.Invoke(HttpContext context)","EventId":{"Id":1,"Name":"UnhandledException"},"SourceContext":"Microsoft.AspNetCore.Diagnostics.DeveloperExceptionPageMiddleware","RequestId":"80000041-000b-fe00-b63f-84710c7967bb","RequestPath":"/umbraco/backoffice/umbracoapi/authentication/PostRequestPasswordReset","ProcessId":21236,"ProcessName":"iisexpress","ThreadId":26,"AppDomainId":1,"AppDomainAppId":"1317b4e1457b8b3d80d9fc74a5657c5870271dda","MachineName":"LAPTOP-P8HSFIHG","Log4NetLevel":"ERROR"}
{"@t":"2021-08-29T20:35:29.5941013Z","@mt":"Acquiring.","SourceContext":"Umbraco.Cms.Core.Runtime.MainDom","ProcessId":4396,"ProcessName":"iisexpress","ThreadId":1,"AppDomainId":1,"AppDomainAppId":"1317b4e1457b8b3d80d9fc74a5657c5870271dda","MachineName":"LAPTOP-P8HSFIHG","Log4NetLevel":"INFO "}
{"@t":"2021-08-29T20:35:29.6057722Z","@mt":"Acquired.","SourceContext":"Umbraco.Cms.Core.Runtime.MainDom","ProcessId":4396,"ProcessName":"iisexpress","ThreadId":1,"AppDomainId":1,"AppDomainAppId":"1317b4e1457b8b3d80d9fc74a5657c5870271dda","MachineName":"LAPTOP-P8HSFIHG","Log4NetLevel":"INFO "}
{"@t":"2021-08-29T20:35:31.0540750Z","@mt":"Application started. Press Ctrl+C to shut down.","SourceContext":"Microsoft.Hosting.Lifetime","ProcessId":4396,"ProcessName":"iisexpress","ThreadId":1,"AppDomainId":1,"AppDomainAppId":"1317b4e1457b8b3d80d9fc74a5657c5870271dda","MachineName":"LAPTOP-P8HSFIHG","Log4NetLevel":"INFO "}
{"@t":"2021-08-29T20:35:31.0542804Z","@mt":"Hosting environment: {envName}","envName":"Development","SourceContext":"Microsoft.Hosting.Lifetime","ProcessId":4396,"ProcessName":"iisexpress","ThreadId":1,"AppDomainId":1,"AppDomainAppId":"1317b4e1457b8b3d80d9fc74a5657c5870271dda","MachineName":"LAPTOP-P8HSFIHG","Log4NetLevel":"INFO "}
{"@t":"2021-08-29T20:35:31.0544868Z","@mt":"Content root path: {contentRoot}","contentRoot":"C:\\Projects\\UmbracoHowTo\\ourumbraco","SourceContext":"Microsoft.Hosting.Lifetime","ProcessId":4396,"ProcessName":"iisexpress","ThreadId":1,"AppDomainId":1,"AppDomainAppId":"1317b4e1457b8b3d80d9fc74a5657c5870271dda","MachineName":"LAPTOP-P8HSFIHG","Log4NetLevel":"INFO "}
{"@t":"2021-08-29T20:35:31.3269021Z","@mt":"Registered with MainDom, localContentDbExists? {LocalContentDbExists}, localMediaDbExists? {LocalMediaDbExists}","LocalContentDbExists":true,"LocalMediaDbExists":true,"SourceContext":"Umbraco.Cms.Infrastructure.PublishedCache.PublishedSnapshotService","RequestId":"80000076-0008-fd00-b63f-84710c7967bb","RequestPath":"/","ProcessId":4396,"ProcessName":"iisexpress","ThreadId":9,"AppDomainId":1,"AppDomainAppId":"1317b4e1457b8b3d80d9fc74a5657c5870271dda","MachineName":"LAPTOP-P8HSFIHG","Log4NetLevel":"INFO ","HttpRequestId":"1cacf294-9159-4264-8ac7-f01d2a6aa36c","HttpRequestNumber":1,"HttpSessionId":"0"}
{"@t":"2021-08-29T20:35:31.3283264Z","@mt":"Creating the content store, localContentDbExists? {LocalContentDbExists}","LocalContentDbExists":true,"SourceContext":"Umbraco.Cms.Infrastructure.PublishedCache.PublishedSnapshotService","RequestId":"80000076-0008-fd00-b63f-84710c7967bb","RequestPath":"/","ProcessId":4396,"ProcessName":"iisexpress","ThreadId":9,"AppDomainId":1,"AppDomainAppId":"1317b4e1457b8b3d80d9fc74a5657c5870271dda","MachineName":"LAPTOP-P8HSFIHG","Log4NetLevel":"INFO ","HttpRequestId":"1cacf294-9159-4264-8ac7-f01d2a6aa36c","HttpRequestNumber":1,"HttpSessionId":"0"}
{"@t":"2021-08-29T20:35:31.3299812Z","@mt":"Creating the media store, localMediaDbExists? {LocalMediaDbExists}","LocalMediaDbExists":true,"SourceContext":"Umbraco.Cms.Infrastructure.PublishedCache.PublishedSnapshotService","RequestId":"80000076-0008-fd00-b63f-84710c7967bb","RequestPath":"/","ProcessId":4396,"ProcessName":"iisexpress","ThreadId":9,"AppDomainId":1,"AppDomainAppId":"1317b4e1457b8b3d80d9fc74a5657c5870271dda","MachineName":"LAPTOP-P8HSFIHG","Log4NetLevel":"INFO ","HttpRequestId":"1cacf294-9159-4264-8ac7-f01d2a6aa36c","HttpRequestNumber":1,"HttpSessionId":"0"}
{"@t":"2021-08-29T20:35:31.7494370Z","@mt":"{StartMessage} [Timing {TimingId}]","StartMessage":"Loading content from local cache file","TimingId":"aae7d87","SourceContext":"Umbraco.Cms.Core.Logging.ProfilingLogger","RequestId":"80000076-0008-fd00-b63f-84710c7967bb","RequestPath":"/","ProcessId":4396,"ProcessName":"iisexpress","ThreadId":9,"AppDomainId":1,"AppDomainAppId":"1317b4e1457b8b3d80d9fc74a5657c5870271dda","MachineName":"LAPTOP-P8HSFIHG","Log4NetLevel":"INFO ","HttpRequestId":"1cacf294-9159-4264-8ac7-f01d2a6aa36c","HttpRequestNumber":1,"HttpSessionId":"0"}
{"@t":"2021-08-29T20:35:31.7663472Z","@mt":"{EndMessage} ({Duration}ms) [Timing {TimingId}]","EndMessage":"Completed.","Duration":17,"TimingId":"aae7d87","SourceContext":"Umbraco.Cms.Core.Logging.ProfilingLogger","RequestId":"80000076-0008-fd00-b63f-84710c7967bb","RequestPath":"/","ProcessId":4396,"ProcessName":"iisexpress","ThreadId":9,"AppDomainId":1,"AppDomainAppId":"1317b4e1457b8b3d80d9fc74a5657c5870271dda","MachineName":"LAPTOP-P8HSFIHG","Log4NetLevel":"INFO ","HttpRequestId":"1cacf294-9159-4264-8ac7-f01d2a6aa36c","HttpRequestNumber":1,"HttpSessionId":"0"}
{"@t":"2021-08-29T20:35:31.7912480Z","@mt":"{StartMessage} [Timing {TimingId}]","StartMessage":"Loading media from local cache file","TimingId":"5f662ec","SourceContext":"Umbraco.Cms.Core.Logging.ProfilingLogger","RequestId":"80000076-0008-fd00-b63f-84710c7967bb","RequestPath":"/","ProcessId":4396,"ProcessName":"iisexpress","ThreadId":9,"AppDomainId":1,"AppDomainAppId":"1317b4e1457b8b3d80d9fc74a5657c5870271dda","MachineName":"LAPTOP-P8HSFIHG","Log4NetLevel":"INFO ","HttpRequestId":"1cacf294-9159-4264-8ac7-f01d2a6aa36c","HttpRequestNumber":1,"HttpSessionId":"0"}
{"@t":"2021-08-29T20:35:31.7915774Z","@mt":"Tried to load {entityType} from the local cache file but it was empty.","entityType":"media","SourceContext":"Umbraco.Cms.Infrastructure.PublishedCache.PublishedSnapshotService","RequestId":"80000076-0008-fd00-b63f-84710c7967bb","RequestPath":"/","ProcessId":4396,"ProcessName":"iisexpress","ThreadId":9,"AppDomainId":1,"AppDomainAppId":"1317b4e1457b8b3d80d9fc74a5657c5870271dda","MachineName":"LAPTOP-P8HSFIHG","Log4NetLevel":"INFO ","HttpRequestId":"1cacf294-9159-4264-8ac7-f01d2a6aa36c","HttpRequestNumber":1,"HttpSessionId":"0"}
{"@t":"2021-08-29T20:35:31.7916159Z","@mt":"{EndMessage} ({Duration}ms) [Timing {TimingId}]","EndMessage":"Completed.","Duration":0,"TimingId":"5f662ec","SourceContext":"Umbraco.Cms.Core.Logging.ProfilingLogger","RequestId":"80000076-0008-fd00-b63f-84710c7967bb","RequestPath":"/","ProcessId":4396,"ProcessName":"iisexpress","ThreadId":9,"AppDomainId":1,"AppDomainAppId":"1317b4e1457b8b3d80d9fc74a5657c5870271dda","MachineName":"LAPTOP-P8HSFIHG","Log4NetLevel":"INFO ","HttpRequestId":"1cacf294-9159-4264-8ac7-f01d2a6aa36c","HttpRequestNumber":1,"HttpSessionId":"0"}
{"@t":"2021-08-29T20:35:31.7940786Z","@mt":"Loading media from local db raised warnings, will reload from database.","@l":"Warning","SourceContext":"Umbraco.Cms.Infrastructure.PublishedCache.PublishedSnapshotService","RequestId":"80000076-0008-fd00-b63f-84710c7967bb","RequestPath":"/","ProcessId":4396,"ProcessName":"iisexpress","ThreadId":9,"AppDomainId":1,"AppDomainAppId":"1317b4e1457b8b3d80d9fc74a5657c5870271dda","MachineName":"LAPTOP-P8HSFIHG","Log4NetLevel":"WARN ","HttpRequestId":"1cacf294-9159-4264-8ac7-f01d2a6aa36c","HttpRequestNumber":1,"HttpSessionId":"0"}
{"@t":"2021-08-29T20:35:31.8140178Z","@mt":"{StartMessage} [Timing {TimingId}]","StartMessage":"Loading media from database","TimingId":"7bf1223","SourceContext":"Umbraco.Cms.Core.Logging.ProfilingLogger","RequestId":"80000076-0008-fd00-b63f-84710c7967bb","RequestPath":"/","ProcessId":4396,"ProcessName":"iisexpress","ThreadId":9,"AppDomainId":1,"AppDomainAppId":"1317b4e1457b8b3d80d9fc74a5657c5870271dda","MachineName":"LAPTOP-P8HSFIHG","Log4NetLevel":"INFO ","HttpRequestId":"1cacf294-9159-4264-8ac7-f01d2a6aa36c","HttpRequestNumber":1,"HttpSessionId":"0"}
{"@t":"2021-08-29T20:35:31.8902172Z","@mt":"{EndMessage} ({Duration}ms) [Timing {TimingId}]","EndMessage":"Completed.","Duration":76,"TimingId":"7bf1223","SourceContext":"Umbraco.Cms.Core.Logging.ProfilingLogger","RequestId":"80000076-0008-fd00-b63f-84710c7967bb","RequestPath":"/","ProcessId":4396,"ProcessName":"iisexpress","ThreadId":9,"AppDomainId":1,"AppDomainAppId":"1317b4e1457b8b3d80d9fc74a5657c5870271dda","MachineName":"LAPTOP-P8HSFIHG","Log4NetLevel":"INFO ","HttpRequestId":"1cacf294-9159-4264-8ac7-f01d2a6aa36c","HttpRequestNumber":1,"HttpSessionId":"0"}
{"@t":"2021-08-29T20:35:48.6990033Z","@mt":"Document {ContentName} (id={ContentId}) has been published.","ContentName":"My website","ContentId":1077,"SourceContext":"Umbraco.Cms.Core.Services.Implement.ContentService","ActionId":"3e09402f-f26f-4016-b780-e174322832f9","ActionName":"Umbraco.Cms.Web.BackOffice.Controllers.ContentController.PostSave (Umbraco.Web.BackOffice)","RequestId":"8000012b-0009-fe00-b63f-84710c7967bb","RequestPath":"/umbraco/backoffice/umbracoapi/content/PostSave","ProcessId":4396,"ProcessName":"iisexpress","ThreadId":5,"AppDomainId":1,"AppDomainAppId":"1317b4e1457b8b3d80d9fc74a5657c5870271dda","MachineName":"LAPTOP-P8HSFIHG","Log4NetLevel":"INFO ","HttpRequestId":"861643dc-a1b3-4a8b-8398-067303970d45","HttpRequestNumber":2,"HttpSessionId":"e5c816ce-3546-b218-c97d-393b738e31d6"}
{"@t":"2021-08-29T20:35:49.0697804Z","@mt":"Adding examine event handlers for {RegisteredIndexers} index providers.","RegisteredIndexers":3,"SourceContext":"Umbraco.Cms.Infrastructure.Examine.ExamineUmbracoIndexingHandler","ActionId":"3e09402f-f26f-4016-b780-e174322832f9","ActionName":"Umbraco.Cms.Web.BackOffice.Controllers.ContentController.PostSave (Umbraco.Web.BackOffice)","RequestId":"8000012b-0009-fe00-b63f-84710c7967bb","RequestPath":"/umbraco/backoffice/umbracoapi/content/PostSave","ProcessId":4396,"ProcessName":"iisexpress","ThreadId":5,"AppDomainId":1,"AppDomainAppId":"1317b4e1457b8b3d80d9fc74a5657c5870271dda","MachineName":"LAPTOP-P8HSFIHG","Log4NetLevel":"INFO ","HttpRequestId":"861643dc-a1b3-4a8b-8398-067303970d45","HttpRequestNumber":2,"HttpSessionId":"e5c816ce-3546-b218-c97d-393b738e31d6"}
{"@t":"2021-08-29T20:35:54.0045942Z","@mt":"An error occurred sending notification","@l":"Error","@x":"System.Net.Internals.SocketExceptionFactory+ExtendedSocketException (10061): No connection could be made because the target machine actively refused it. 127.0.0.1:25\r\n   at System.Net.Sockets.Socket.EndConnect(IAsyncResult asyncResult)\r\n   at MailKit.Net.SocketUtils.ConnectAsync(String host, Int32 port, IPEndPoint localEndPoint, Boolean doAsync, CancellationToken cancellationToken)\r\n   at MailKit.Net.SocketUtils.ConnectAsync(String host, Int32 port, IPEndPoint localEndPoint, Int32 timeout, Boolean doAsync, CancellationToken cancellationToken)\r\n   at MailKit.MailService.ConnectSocket(String host, Int32 port, Boolean doAsync, CancellationToken cancellationToken)\r\n   at MailKit.Net.Smtp.SmtpClient.ConnectAsync(String host, Int32 port, SecureSocketOptions options, Boolean doAsync, CancellationToken cancellationToken)\r\n   at Umbraco.Cms.Infrastructure.EmailSender.SendAsyncInternal(EmailMessage message, Boolean enableNotification)\r\n   at Umbraco.Cms.Infrastructure.EmailSender.SendAsync(EmailMessage message)\r\n   at Umbraco.Cms.Core.Services.Implement.NotificationService.<>c__DisplayClass31_0.<Process>b__0(Object state)","SourceContext":"Umbraco.Cms.Core.Services.Implement.NotificationService","ActionId":"3e09402f-f26f-4016-b780-e174322832f9","ActionName":"Umbraco.Cms.Web.BackOffice.Controllers.ContentController.PostSave (Umbraco.Web.BackOffice)","RequestId":"8000012b-0009-fe00-b63f-84710c7967bb","RequestPath":"/umbraco/backoffice/umbracoapi/content/PostSave","ProcessId":4396,"ProcessName":"iisexpress","ThreadId":24,"AppDomainId":1,"AppDomainAppId":"1317b4e1457b8b3d80d9fc74a5657c5870271dda","MachineName":"LAPTOP-P8HSFIHG","Log4NetLevel":"ERROR","HttpRequestId":"1e909edd-081c-4486-9d16-fa512468a107","HttpRequestNumber":3,"HttpSessionId":"0"}
{"@t":"2021-08-29T20:35:58.2595954Z","@mt":"An error occurred sending notification","@l":"Error","@x":"System.Net.Internals.SocketExceptionFactory+ExtendedSocketException (10061): No connection could be made because the target machine actively refused it. 127.0.0.1:25\r\n   at System.Net.Sockets.Socket.EndConnect(IAsyncResult asyncResult)\r\n   at MailKit.Net.SocketUtils.ConnectAsync(String host, Int32 port, IPEndPoint localEndPoint, Boolean doAsync, CancellationToken cancellationToken)\r\n   at MailKit.Net.SocketUtils.ConnectAsync(String host, Int32 port, IPEndPoint localEndPoint, Int32 timeout, Boolean doAsync, CancellationToken cancellationToken)\r\n   at MailKit.MailService.ConnectSocket(String host, Int32 port, Boolean doAsync, CancellationToken cancellationToken)\r\n   at MailKit.Net.Smtp.SmtpClient.ConnectAsync(String host, Int32 port, SecureSocketOptions options, Boolean doAsync, CancellationToken cancellationToken)\r\n   at Umbraco.Cms.Infrastructure.EmailSender.SendAsyncInternal(EmailMessage message, Boolean enableNotification)\r\n   at Umbraco.Cms.Infrastructure.EmailSender.SendAsync(EmailMessage message)\r\n   at Umbraco.Cms.Core.Services.Implement.NotificationService.<>c__DisplayClass31_0.<Process>b__0(Object state)","SourceContext":"Umbraco.Cms.Core.Services.Implement.NotificationService","ActionId":"3e09402f-f26f-4016-b780-e174322832f9","ActionName":"Umbraco.Cms.Web.BackOffice.Controllers.ContentController.PostSave (Umbraco.Web.BackOffice)","RequestId":"8000012b-0009-fe00-b63f-84710c7967bb","RequestPath":"/umbraco/backoffice/umbracoapi/content/PostSave","ProcessId":4396,"ProcessName":"iisexpress","ThreadId":24,"AppDomainId":1,"AppDomainAppId":"1317b4e1457b8b3d80d9fc74a5657c5870271dda","MachineName":"LAPTOP-P8HSFIHG","Log4NetLevel":"ERROR","HttpRequestId":"2ca7d47e-4b41-4b10-a9a4-17e171c1a585","HttpRequestNumber":4,"HttpSessionId":"0"}
{"@t":"2021-08-29T20:36:20.8043403Z","@mt":"Acquiring.","SourceContext":"Umbraco.Cms.Core.Runtime.MainDom","ProcessId":12640,"ProcessName":"iisexpress","ThreadId":1,"AppDomainId":1,"AppDomainAppId":"1317b4e1457b8b3d80d9fc74a5657c5870271dda","MachineName":"LAPTOP-P8HSFIHG","Log4NetLevel":"INFO "}
{"@t":"2021-08-29T20:36:20.8161617Z","@mt":"Acquired.","SourceContext":"Umbraco.Cms.Core.Runtime.MainDom","ProcessId":12640,"ProcessName":"iisexpress","ThreadId":1,"AppDomainId":1,"AppDomainAppId":"1317b4e1457b8b3d80d9fc74a5657c5870271dda","MachineName":"LAPTOP-P8HSFIHG","Log4NetLevel":"INFO "}
{"@t":"2021-08-29T20:36:22.3354977Z","@mt":"Application started. Press Ctrl+C to shut down.","SourceContext":"Microsoft.Hosting.Lifetime","ProcessId":12640,"ProcessName":"iisexpress","ThreadId":1,"AppDomainId":1,"AppDomainAppId":"1317b4e1457b8b3d80d9fc74a5657c5870271dda","MachineName":"LAPTOP-P8HSFIHG","Log4NetLevel":"INFO "}
{"@t":"2021-08-29T20:36:22.3358396Z","@mt":"Hosting environment: {envName}","envName":"Development","SourceContext":"Microsoft.Hosting.Lifetime","ProcessId":12640,"ProcessName":"iisexpress","ThreadId":1,"AppDomainId":1,"AppDomainAppId":"1317b4e1457b8b3d80d9fc74a5657c5870271dda","MachineName":"LAPTOP-P8HSFIHG","Log4NetLevel":"INFO "}
{"@t":"2021-08-29T20:36:22.3360525Z","@mt":"Content root path: {contentRoot}","contentRoot":"C:\\Projects\\UmbracoHowTo\\ourumbraco","SourceContext":"Microsoft.Hosting.Lifetime","ProcessId":12640,"ProcessName":"iisexpress","ThreadId":1,"AppDomainId":1,"AppDomainAppId":"1317b4e1457b8b3d80d9fc74a5657c5870271dda","MachineName":"LAPTOP-P8HSFIHG","Log4NetLevel":"INFO "}
{"@t":"2021-08-29T20:36:22.5247951Z","@mt":"Registered with MainDom, localContentDbExists? {LocalContentDbExists}, localMediaDbExists? {LocalMediaDbExists}","LocalContentDbExists":true,"LocalMediaDbExists":true,"SourceContext":"Umbraco.Cms.Infrastructure.PublishedCache.PublishedSnapshotService","RequestId":"800000ad-0003-fc00-b63f-84710c7967bb","RequestPath":"/","ProcessId":12640,"ProcessName":"iisexpress","ThreadId":18,"AppDomainId":1,"AppDomainAppId":"1317b4e1457b8b3d80d9fc74a5657c5870271dda","MachineName":"LAPTOP-P8HSFIHG","Log4NetLevel":"INFO ","HttpRequestId":"257536a5-f45c-40d9-bd14-1c379aa9519f","HttpRequestNumber":1,"HttpSessionId":"0"}
{"@t":"2021-08-29T20:36:22.5262904Z","@mt":"Creating the content store, localContentDbExists? {LocalContentDbExists}","LocalContentDbExists":true,"SourceContext":"Umbraco.Cms.Infrastructure.PublishedCache.PublishedSnapshotService","RequestId":"800000ad-0003-fc00-b63f-84710c7967bb","RequestPath":"/","ProcessId":12640,"ProcessName":"iisexpress","ThreadId":18,"AppDomainId":1,"AppDomainAppId":"1317b4e1457b8b3d80d9fc74a5657c5870271dda","MachineName":"LAPTOP-P8HSFIHG","Log4NetLevel":"INFO ","HttpRequestId":"257536a5-f45c-40d9-bd14-1c379aa9519f","HttpRequestNumber":1,"HttpSessionId":"0"}
{"@t":"2021-08-29T20:36:22.5282410Z","@mt":"Creating the media store, localMediaDbExists? {LocalMediaDbExists}","LocalMediaDbExists":true,"SourceContext":"Umbraco.Cms.Infrastructure.PublishedCache.PublishedSnapshotService","RequestId":"800000ad-0003-fc00-b63f-84710c7967bb","RequestPath":"/","ProcessId":12640,"ProcessName":"iisexpress","ThreadId":18,"AppDomainId":1,"AppDomainAppId":"1317b4e1457b8b3d80d9fc74a5657c5870271dda","MachineName":"LAPTOP-P8HSFIHG","Log4NetLevel":"INFO ","HttpRequestId":"257536a5-f45c-40d9-bd14-1c379aa9519f","HttpRequestNumber":1,"HttpSessionId":"0"}
{"@t":"2021-08-29T20:36:22.8965917Z","@mt":"{StartMessage} [Timing {TimingId}]","StartMessage":"Loading content from local cache file","TimingId":"68b302c","SourceContext":"Umbraco.Cms.Core.Logging.ProfilingLogger","RequestId":"800000ad-0003-fc00-b63f-84710c7967bb","RequestPath":"/","ProcessId":12640,"ProcessName":"iisexpress","ThreadId":18,"AppDomainId":1,"AppDomainAppId":"1317b4e1457b8b3d80d9fc74a5657c5870271dda","MachineName":"LAPTOP-P8HSFIHG","Log4NetLevel":"INFO ","HttpRequestId":"257536a5-f45c-40d9-bd14-1c379aa9519f","HttpRequestNumber":1,"HttpSessionId":"0"}
{"@t":"2021-08-29T20:36:22.9132317Z","@mt":"{EndMessage} ({Duration}ms) [Timing {TimingId}]","EndMessage":"Completed.","Duration":16,"TimingId":"68b302c","SourceContext":"Umbraco.Cms.Core.Logging.ProfilingLogger","RequestId":"800000ad-0003-fc00-b63f-84710c7967bb","RequestPath":"/","ProcessId":12640,"ProcessName":"iisexpress","ThreadId":18,"AppDomainId":1,"AppDomainAppId":"1317b4e1457b8b3d80d9fc74a5657c5870271dda","MachineName":"LAPTOP-P8HSFIHG","Log4NetLevel":"INFO ","HttpRequestId":"257536a5-f45c-40d9-bd14-1c379aa9519f","HttpRequestNumber":1,"HttpSessionId":"0"}
{"@t":"2021-08-29T20:36:22.9366832Z","@mt":"{StartMessage} [Timing {TimingId}]","StartMessage":"Loading media from local cache file","TimingId":"ec29e56","SourceContext":"Umbraco.Cms.Core.Logging.ProfilingLogger","RequestId":"800000ad-0003-fc00-b63f-84710c7967bb","RequestPath":"/","ProcessId":12640,"ProcessName":"iisexpress","ThreadId":18,"AppDomainId":1,"AppDomainAppId":"1317b4e1457b8b3d80d9fc74a5657c5870271dda","MachineName":"LAPTOP-P8HSFIHG","Log4NetLevel":"INFO ","HttpRequestId":"257536a5-f45c-40d9-bd14-1c379aa9519f","HttpRequestNumber":1,"HttpSessionId":"0"}
{"@t":"2021-08-29T20:36:22.9369042Z","@mt":"Tried to load {entityType} from the local cache file but it was empty.","entityType":"media","SourceContext":"Umbraco.Cms.Infrastructure.PublishedCache.PublishedSnapshotService","RequestId":"800000ad-0003-fc00-b63f-84710c7967bb","RequestPath":"/","ProcessId":12640,"ProcessName":"iisexpress","ThreadId":18,"AppDomainId":1,"AppDomainAppId":"1317b4e1457b8b3d80d9fc74a5657c5870271dda","MachineName":"LAPTOP-P8HSFIHG","Log4NetLevel":"INFO ","HttpRequestId":"257536a5-f45c-40d9-bd14-1c379aa9519f","HttpRequestNumber":1,"HttpSessionId":"0"}
{"@t":"2021-08-29T20:36:22.9369394Z","@mt":"{EndMessage} ({Duration}ms) [Timing {TimingId}]","EndMessage":"Completed.","Duration":0,"TimingId":"ec29e56","SourceContext":"Umbraco.Cms.Core.Logging.ProfilingLogger","RequestId":"800000ad-0003-fc00-b63f-84710c7967bb","RequestPath":"/","ProcessId":12640,"ProcessName":"iisexpress","ThreadId":18,"AppDomainId":1,"AppDomainAppId":"1317b4e1457b8b3d80d9fc74a5657c5870271dda","MachineName":"LAPTOP-P8HSFIHG","Log4NetLevel":"INFO ","HttpRequestId":"257536a5-f45c-40d9-bd14-1c379aa9519f","HttpRequestNumber":1,"HttpSessionId":"0"}
{"@t":"2021-08-29T20:36:22.9398280Z","@mt":"Loading media from local db raised warnings, will reload from database.","@l":"Warning","SourceContext":"Umbraco.Cms.Infrastructure.PublishedCache.PublishedSnapshotService","RequestId":"800000ad-0003-fc00-b63f-84710c7967bb","RequestPath":"/","ProcessId":12640,"ProcessName":"iisexpress","ThreadId":18,"AppDomainId":1,"AppDomainAppId":"1317b4e1457b8b3d80d9fc74a5657c5870271dda","MachineName":"LAPTOP-P8HSFIHG","Log4NetLevel":"WARN ","HttpRequestId":"257536a5-f45c-40d9-bd14-1c379aa9519f","HttpRequestNumber":1,"HttpSessionId":"0"}
{"@t":"2021-08-29T20:36:22.9598609Z","@mt":"{StartMessage} [Timing {TimingId}]","StartMessage":"Loading media from database","TimingId":"9da339a","SourceContext":"Umbraco.Cms.Core.Logging.ProfilingLogger","RequestId":"800000ad-0003-fc00-b63f-84710c7967bb","RequestPath":"/","ProcessId":12640,"ProcessName":"iisexpress","ThreadId":18,"AppDomainId":1,"AppDomainAppId":"1317b4e1457b8b3d80d9fc74a5657c5870271dda","MachineName":"LAPTOP-P8HSFIHG","Log4NetLevel":"INFO ","HttpRequestId":"257536a5-f45c-40d9-bd14-1c379aa9519f","HttpRequestNumber":1,"HttpSessionId":"0"}
{"@t":"2021-08-29T20:36:23.0310820Z","@mt":"{EndMessage} ({Duration}ms) [Timing {TimingId}]","EndMessage":"Completed.","Duration":71,"TimingId":"9da339a","SourceContext":"Umbraco.Cms.Core.Logging.ProfilingLogger","RequestId":"800000ad-0003-fc00-b63f-84710c7967bb","RequestPath":"/","ProcessId":12640,"ProcessName":"iisexpress","ThreadId":18,"AppDomainId":1,"AppDomainAppId":"1317b4e1457b8b3d80d9fc74a5657c5870271dda","MachineName":"LAPTOP-P8HSFIHG","Log4NetLevel":"INFO ","HttpRequestId":"257536a5-f45c-40d9-bd14-1c379aa9519f","HttpRequestNumber":1,"HttpSessionId":"0"}
{"@t":"2021-08-29T20:37:22.0883398Z","@mt":"Adding examine event handlers for {RegisteredIndexers} index providers.","RegisteredIndexers":3,"SourceContext":"Umbraco.Cms.Infrastructure.Examine.ExamineUmbracoIndexingHandler","ProcessId":12640,"ProcessName":"iisexpress","ThreadId":51,"AppDomainId":1,"AppDomainAppId":"1317b4e1457b8b3d80d9fc74a5657c5870271dda","MachineName":"LAPTOP-P8HSFIHG","Log4NetLevel":"INFO "}
